0,20 0,20 0,20 17,0 3,0 0,0 0,0 -20,0 0,20 0,20 0,1 0,9 0,0 0,20 0,19 
0,20 0,20 0,20 16,0 4,0 20,0 -20,0 -20,0 0,20 0,20 0,3 0,7 0,10 0,19 
0,16 0,14 0,20 0,0 0,0 -8,10 -2,10 0,10 -10,10 10,10 10,10 0,9 
