29,183 29,182 30,181 31,180 32,179 33,178 34,177 35,176 36,175 37,174 38,173 38,172 39,171 40,170 41,169 42,168 43,167 44,166 45,166 46,166 47,166 48,166 49,166 50,166 51,166 52,166 53,165 54,164 55,163 56,162 57,161 58,161 59,162 60,163 61,164 61,165 61,166 61,167 60,168 59,169 58,170 57,171 56,171 55,171 54,172 53,172 52,173 51,174 50,175 49,174 48,173 47,173 46,173 45,174 44,175 43,176 42,177 41,178 40,179 39,180 38,180 37,181 36,182 35,182 34,183 33,184 32,184 31,184 30,184
10,29 11,28 12,29 11,30
156,100 155,99 154,98 153,97 152,96 153,95 153,94 154,93 155,92 156,91 157,90 158,89 159,88 160,87 161,86 162,86 163,86 164,86 165,87 165,88 165,89 165,90 165,91 166,92 167,93 167,94 167,95 166,96 165,97 164,98 164,99 164,100 163,101 163,102 162,103 161,104 160,104 159,104 158,104 157,103 156,102 155,101
55,47 54,46 53,45 52,44 51,43 51,42 50,41 49,40 49,39 48,38 47,37 46,36 45,35 44,34 45,33 46,32 47,31 48,30 48,29 49,28 49,27 50,26 51,25 51,24 52,23 53,22 54,21 55,20 56,19 57,18 58,17 59,16 60,15 61,14 62,13 63,12 64,11 65,11 66,11 67,11 68,12 69,12 70,13 71,13 72,13 73,14 74,14 75,14 76,14 77,14 78,13 79,14 80,15 81,16 82,15 83,16 84,17 85,18 86,19 87,18 88,17 89,16 90,16 91,17 92,18 92,19 93,20 93,21 92,22 92,23 91,24 91,25 92,26 91,27 91,28 90,29 89,30 89,31 88,32 87,33 86,34 85,35 84,36 83,37 82,38 81,39 80,40 81,41 82,42 83,43 84,44 83,45 83,46 83,47 83,48 83,49 83,50 83,51 83,52 83,53 83,54 82,55 81,56 80,57 80,58 79,59 78,60 77,61 76,62 75,63 75,64 76,65 77,66 78,67 78,68 79,69 79,70 80,71 81,72 80,73 79,74 78,75 77,76 77,77 76,78 75,79 74,80 74,81 73,82 72,81 71,80 70,79 69,78 68,77 67,76 66,75 65,74 64,73 63,72 62,71 61,70 60,69 59,68 58,67 57,66 56,65 55,64 55,63 54,62 53,61 52,60 51,59 50,58 49,57 48,56 47,55 48,54 49,53 50,52 51,51 52,50 53,49 54,48
17,38 17,37 17,36 18,35 19,35 20,35 21,35 22,35 23,35 24,36 25,37 26,38 27,38 28,37 29,37 30,38 31,38 32,38 33,39 34,40 35,40 36,41 36,42 35,43 34,44 33,43 32,43 31,43 30,44 29,44 28,44 27,44 26,44 25,43 24,42 23,41 22,41 21,41 20,41 19,40 18,39
121,12 120,11 119,10 120,9 121,8 122,7 123,6 124,5 125,4 126,4 127,3 128,4 129,5 129,6 130,7 130,8 130,9 130,10 130,11 130,12 130,13 129,14 128,14 127,14 126,14 125,14 124,15 123,15 122,15 121,14 120,13
188,234 189,233 190,232 190,231 190,230 191,229 192,229 193,229 194,230 195,231 196,232 197,233 198,234 199,235 200,236 201,237 202,238 203,239 204,240 203,241 204,241 205,242 205,243 204,244 203,245 202,246 201,247 200,248 199,249 198,249 197,249 196,249 195,249 194,249 193,249 192,249 191,248 192,247 193,246 194,245 195,244 195,243 194,242 193,241 192,240 191,239 190,238 189,237 188,236 188,235
137,96 136,95 137,94 138,93 139,92 140,91 141,91 142,90 143,91 144,91 145,91 146,91 147,91 148,91 149,91 150,91 151,92 152,93 151,94 150,95 149,96 149,97 148,98 148,99 147,100 146,101 145,101 144,101 143,101 142,100 141,100 140,100 139,99 138,98 137,97
219,182 218,181 217,180 217,179 218,178 219,177 220,176 221,175 222,174 223,173 224,173 225,173 226,172 227,172 228,173 229,174 230,175 230,176 231,177 232,178 233,179 234,180 234,181 235,182 236,183 237,184 238,184 239,185 240,185 241,185 242,186 241,187 241,188 240,189 239,189 238,189 237,189 236,189 235,188 234,188 233,189 232,190 231,191 230,190 229,191 228,192 227,193 226,192 225,192 224,191 223,191 222,191 221,191 220,190 219,189 218,188 218,187 217,186 216,185 217,184 218,183
104,197 105,196 106,195 107,194 108,195 109,196 109,197 109,198 108,199 107,200 106,200 105,199 104,198
100,9 101,8 102,7 103,6 104,7 104,8 105,9 105,10 106,11 106,12 106,13 106,14 105,15 104,15 103,15 102,14 101,13 100,13 99,12 98,11 99,10
197,133 198,132 199,131 200,130 201,130 202,130 203,131 204,132 204,133 203,134 202,134 201,135 200,135 199,135 198,134
60,232 60,231 60,230 61,229 62,228 63,228 64,229 65,230 66,231 67,232 68,233 69,234 68,235 69,236 70,237 69,238 68,239 67,240 66,241 65,242 64,243 63,243 62,244 61,243 60,242 60,241 60,240 60,239 61,238 61,237 61,236 61,235 61,234 60,233
27,235 28,234 28,233 29,232 30,232 31,231 32,230 33,230 34,230 35,229 36,229 37,229 38,230 39,230 40,231 41,231 42,231 43,232 44,232 45,233 45,234 44,235 45,236 44,237 43,238 42,239 41,240 40,241 39,242 38,243 37,243 36,244 35,244 34,245 33,244 33,243 32,242 31,241 31,240 30,239 29,238 29,237 28,236
148,236 149,235 149,234 150,233 151,232 152,232 153,231 154,231 155,232 156,233 157,234 158,235 159,236 160,236 161,236 162,236 163,236 164,237 165,238 166,239 167,240 168,241 169,242 168,243 169,244 168,245 167,246 166,247 165,247 164,247 163,246 162,246 161,247 160,246 159,245 158,244 157,243 156,243 155,243 154,243 153,243 152,242 151,241 151,240 150,239 150,238 149,237
101,208 101,207 102,206 103,205 104,204 105,204 106,205 107,206 108,207 109,208 110,209 109,210 108,211 107,212 106,212 105,212 104,211 103,210 102,209
123,217 123,216 124,215 125,214 126,213 127,212 128,211 129,211 130,210 131,211 132,211 133,211 134,211 135,211 136,210 137,209 138,208 139,207 140,206 141,207 142,207 143,208 144,208 145,209 145,210 144,211 143,212 143,213 142,214 141,214 140,214 139,215 138,216 137,217 136,218 135,219 134,220 133,220 132,220 131,220 130,220 129,220 128,220 127,220 126,220 125,220 124,219 124,218
104,133 105,132 106,131 107,130 108,130 109,130 110,130 111,131 112,131 113,132 114,133 115,134 115,135 116,136 116,137 115,138 114,139 113,140 112,141 111,141 110,141 109,141 108,140 108,139 108,138 108,137 108,136 107,135 106,135 105,134
97,114 97,113 98,112 99,111 100,110 101,110 102,110 103,109 104,108 104,107 105,106 106,106 107,106 108,107 109,108 110,109 111,110 112,111 113,112 114,113 115,114 116,115 117,116 118,117 117,118 116,119 115,120 114,121 113,122 112,123 111,124 110,125 109,124 108,124 107,123 106,122 105,121 104,120 103,119 102,118 101,118 100,117 99,116 98,115
0,46 0,45 0,44 0,43 0,42 0,41 0,40 1,39 2,38 3,37 4,36 5,35 6,35 7,35 8,35 9,35 10,34 11,33 12,32 13,32 14,32 15,33 16,34 15,35 16,36 16,37 15,38 14,39 13,40 12,41 11,42 10,43 9,44 8,45 7,46 6,47 5,47 4,48 3,47 2,47 1,47
167,80 167,79 168,78 169,77 170,76 171,76 172,76 173,76 174,75 175,74 176,73 177,73 178,73 179,74 180,74 181,74 182,73 183,72 184,71 185,70 186,71 187,72 188,73 188,74 188,75 187,76 187,77 186,78 186,79 186,80 186,81 186,82 187,83 187,84 188,85 188,86 188,87 188,88 188,89 188,90 187,91 186,92 185,92 184,91 183,90 182,90 181,89 180,88 179,87 178,86 177,85 176,85 175,85 174,85 173,85 172,85 171,85 170,85 169,86 168,87 167,86 167,85 166,84 165,83 165,82 166,81
188,17 187,16 188,15 189,14 190,13 191,12 192,12 193,11 194,11 195,12 195,13 195,14 195,15 194,16 193,17 192,18 191,18 190,18 189,18
56,97 56,96 57,95 58,94 58,93 59,92 60,91 60,90 61,89 61,88 61,87 60,86 59,85 58,84 59,83 59,82 60,81 61,82 62,82 63,82 64,82 65,83 66,84 67,85 68,86 69,85 70,86 71,86 72,87 73,87 74,88 75,89 76,89 77,88 78,88 79,87 80,87 81,87 82,88 83,89 84,89 85,89 86,90 87,91 88,92 88,93 89,94 88,95 87,96 87,97 87,98 88,99 89,100 88,101 87,102 86,103 85,104 84,105 83,106 82,107 81,108 80,109 79,110 78,111 77,112 76,113 75,114 74,115 73,116 72,117 71,118 70,119 69,120 68,120 67,120 66,119 65,118 65,117 65,116 65,115 65,114 64,113 63,113 62,112 61,111 60,110 60,109 61,108 62,107 63,106 64,105 64,104 63,103 62,102 61,101 60,100 59,100 58,99 57,98
130,140 130,139 131,138 132,137 133,136 133,135 133,134 133,133 133,132 133,131 133,130 133,129 133,128 134,127 135,126 136,125 137,125 138,126 139,127 139,128 140,129 140,130 140,131 140,132 140,133 140,134 140,135 140,136 139,137 139,138 138,139 137,140 136,141 135,142 134,143 133,143 132,143 131,142 131,141
25,30 25,29 25,28 25,27 25,26 26,25 27,24 28,23 29,22 30,21 31,20 32,20 33,21 34,21 35,20 36,21 37,21 38,20 39,20 40,20 41,20 42,21 43,21 44,22 44,23 45,24 46,24 47,25 47,26 46,27 45,27 44,27 43,27 42,27 41,27 40,27 39,27 38,27 37,27 36,27 35,27 34,27 33,27 32,28 31,29 30,29 29,30 28,31 27,31 26,31
32,195 32,194 33,193 34,192 34,191 35,190 36,189 37,188 38,187 38,186 38,185 39,184 40,183 41,184 42,185 43,185 44,184 45,184 46,184 47,184 48,183 49,182 50,181 51,180 52,179 53,178 54,178 55,178 56,178 57,179 58,180 59,181 60,182 61,182 62,183 63,184 64,185 65,186 65,187 64,188 63,189 62,190 61,191 60,192 59,193 58,194 58,195 58,196 58,197 59,198 59,199 58,200 57,201 56,202 55,203 54,203 53,202 52,201 51,200 50,199 49,199 48,199 47,199 46,198 45,198 44,197 43,197 42,197 41,198 40,199 39,200 38,201 37,201 36,201 35,200 34,199 34,198 33,197 32,196
109,5 110,4 111,3 112,2 113,1 114,1 115,1 116,1 117,1 118,0 119,1 120,1 121,0 122,0 123,0 124,0 125,0 126,0 127,0 128,0 129,1 128,2 127,3 126,3 125,3 124,4 123,5 122,5 121,5 120,6 119,6 118,6 117,6 116,7 115,8 115,9 114,10 113,11 112,11 111,10 110,9 109,8 108,7 108,6
40,43 41,42 41,41 42,40 43,39 44,39 45,38 46,38 47,38 48,38 49,39 49,40 50,41 51,42 51,43 51,44 51,45 51,46 50,47 49,47 48,48 47,49 46,48 45,48 44,48 43,47 43,46 42,45 41,44
144,67 145,66 146,67 145,68
147,113 147,112 148,111 149,110 150,110 151,111 152,111 153,112 154,112 155,112 156,112 157,111 158,110 159,109 160,110 161,110 162,111 163,112 163,113 162,114 162,115 161,116 160,117 159,118 158,119 157,120 156,120 155,119 154,118 153,117 152,116 151,116 150,116 149,116 148,117 147,116 146,115 146,114
92,40 91,39 90,38 89,37 89,36 90,35 91,34 92,33 93,32 94,31 95,30 96,29 97,29 98,29 99,28 100,27 101,26 102,26 103,27 104,28 105,28 106,27 107,27 108,26 109,26 110,26 111,27 112,27 113,28 114,29 114,30 113,31 113,32 112,33 111,34 110,34 109,35 108,36 107,37 106,38 105,39 105,40 105,41 105,42 104,43 103,44 102,44 101,43 100,43 99,42 98,43 97,44 96,43 95,43 94,43 93,42 92,41
205,241 205,240 206,239 207,238 208,237 209,238 210,239 211,240 212,241 213,242 214,243 215,244 216,243 217,244 218,245 219,245 220,244 221,243 222,243 223,243 224,243 225,243 226,244 226,245 227,246 226,247 225,248 224,249 223,249 222,249 221,249 220,249 219,249 218,249 217,249 216,249 215,249 214,249 213,249 212,249 211,249 210,249 209,249 208,249 207,249 206,248 206,247 206,246 206,245 206,244 206,243 206,242
48,245 48,244 48,243 49,242 50,241 51,241 52,241 53,241 54,242 55,243 56,244 57,245 57,246 56,247 55,248 54,249 53,249 52,249 51,249 50,248 49,247 49,246
103,75 104,74 105,75 104,76
226,232 226,231 227,230 228,229 229,229 230,229 231,228 232,227 233,226 234,226 235,226 236,227 237,228 238,228 239,227 240,227 241,227 242,227 243,228 243,229 243,230 243,231 242,232 241,233 240,234 240,235 241,236 241,237 241,238 240,239 239,240 238,241 237,242 236,242 235,241 234,240 233,239 232,238 231,237 230,236 229,235 229,234 228,233 227,233
140,159 140,158 140,157 141,156 142,156 143,157 144,158 145,159 144,160 145,161 144,162 143,163 142,162 142,161 141,160
107,216 107,215 108,214 109,213 110,212 111,211 112,210 113,210 114,210 115,209 116,209 117,209 118,210 119,210 120,211 121,212 120,213 119,214 118,215 117,216 116,217 115,218 114,219 113,219 112,219 111,219 110,220 109,220 108,219 107,218 107,217
69,137 69,136 70,135 71,136 72,136 73,136 74,135 75,134 76,133 77,132 78,132 79,131 80,131 81,130 82,130 83,130 84,131 85,132 86,133 87,134 88,135 89,136 90,137 89,138 88,139 88,140 88,141 88,142 87,143 86,144 85,145 84,144 83,143 82,143 81,143 80,143 79,143 78,143 77,143 76,143 75,143 74,143 73,142 72,141 71,140 70,139 69,138
41,61 42,60 43,59 44,58 45,58 46,59 47,60 48,61 48,62 47,63 46,64 45,64 44,64 43,63 42,62
5,2 6,1 7,2 6,3
75,225 76,224 77,223 78,222 79,222 80,221 81,220 82,219 82,218 83,217 84,217 85,216 86,217 87,217 88,218 89,219 90,220 91,220 92,221 93,222 94,223 94,224 94,225 93,226 92,226 91,226 90,225 89,224 88,224 87,224 86,224 85,224 84,225 83,226 82,227 81,227 80,228 79,228 78,228 77,227 76,227 75,226
65,218 66,217 67,218 66,219
176,101 175,100 174,99 173,98 174,97 175,96 176,95 177,94 178,93 179,92 180,91 181,90 182,90 183,90 184,91 185,92 186,92 187,91 188,90 188,89 188,88 188,87 188,86 188,85 187,84 187,83 186,82 186,81 186,80 186,79 186,78 187,77 187,76 188,75 188,74 189,73 190,72 191,72 192,71 192,70 193,69 194,68 195,67 195,66 196,65 197,64 198,63 199,62 200,61 201,60 202,59 203,58 204,57 205,57 206,57 207,57 208,56 209,55 210,56 210,57 210,58 210,59 209,60 209,61 208,62 208,63 209,64 210,65 211,66 211,67 210,68 210,69 209,70 208,71 207,72 206,73 205,74 204,75 205,76 206,77 207,78 207,79 207,80 207,81 206,82 206,83 205,84 204,85 204,86 203,87 203,88 203,89 203,90 202,91 202,92 201,93 200,94 199,95 199,96 199,97 199,98 199,99 200,100 201,101 200,102 200,103 200,104 200,105 200,106 199,107 198,108 197,109 196,110 195,111 194,110 193,110 192,110 191,110 190,110 189,110 188,109 187,110 186,109 185,109 184,109 183,109 182,109 181,108 180,107 179,106 178,105 177,104 176,103 175,102
30,209 30,208 31,207 32,206 33,206 34,206 35,205 36,204 37,204 38,204 39,204 40,205 41,205 42,205 43,206 43,207 42,208 41,208 40,208 39,209 38,209 37,209 36,210 35,210 34,211 33,212 32,211 31,210
236,9 235,8 234,7 235,6 236,6 237,5 238,5 239,5 240,5 241,5 242,5 243,5 244,5 245,6 245,7 244,8 243,9 242,9 241,10 240,11 239,11 238,11 237,10
120,121 120,120 121,119 122,118 123,118 124,118 125,118 126,119 127,119 128,118 129,118 130,119 131,120 130,121 130,122 130,123 129,124 129,125 129,126 130,127 130,128 129,129 128,128 127,127 126,126 125,125 124,125 123,125 122,125 121,124 120,123 120,122
97,78 97,77 98,76 99,76 100,76 101,76 102,76 103,77 104,76 105,75 106,74 107,73 108,72 109,71 110,70 111,70 112,69 113,69 114,68 115,67 116,67 117,67 118,68 119,69 120,70 121,71 122,71 123,71 124,71 125,72 126,73 126,74 126,75 126,76 127,77 128,78 129,79 130,80 131,81 132,82 132,83 131,84 130,85 129,86 128,87 127,88 127,89 128,90 128,91 129,92 130,93 131,94 131,95 131,96 132,97 132,98 132,99 132,100 133,101 133,102 133,103 133,104 132,105 131,106 130,107 130,108 130,109 130,110 129,111 129,112 128,113 127,113 126,113 125,112 124,111 123,110 122,110 121,109 120,109 119,109 118,108 117,107 116,106 115,105 114,104 113,103 112,102 111,101 110,100 109,99 108,98 108,97 108,96 108,95 107,94 106,93 105,92 104,91 103,90 102,89 101,88 101,87 101,86 101,85 101,84 101,83 101,82 100,81 99,80 98,79
200,173 199,172 200,171 201,170 202,169 203,169 204,169 205,169 206,169 207,168 208,167 209,167 210,167 211,167 212,167 213,168 214,169 214,170 213,171 212,172 211,172 210,173 209,174 208,175 208,176 208,177 207,178 206,178 205,179 204,179 203,178 202,177 201,176 200,175 199,174
222,56 221,55 222,54 223,53 224,54 225,53 226,53 227,54 228,55 229,56 229,57 229,58 230,59 230,60 231,61 232,62 233,63 233,64 232,65 231,65 230,65 229,65 228,64 227,63 226,63 225,62 224,61 223,60 223,59 222,58 221,57
73,173 74,172 75,171 75,170 76,169 77,168 78,168 79,168 80,169 81,169 82,169 83,170 84,171 85,172 86,173 87,174 88,175 89,176 90,177 91,178 90,179 90,180 89,181 88,182 87,183 86,183 85,183 84,183 83,183 82,183 81,183 80,183 79,182 78,181 77,181 76,180 76,179 75,178 74,177 74,176 74,175 74,174
19,132 20,131 21,130 22,129 22,128 23,127 23,126 23,125 22,124 21,123 21,122 20,121 20,120 20,119 21,118 21,117 21,116 21,115 21,114 21,113 21,112 21,111 20,110 20,109 20,108 20,107 21,106 22,107 23,108 24,108 25,107 26,106 27,105 28,105 29,104 30,103 31,104 32,105 33,106 34,107 34,108 33,109 34,110 35,111 35,112 36,113 36,114 37,115 38,116 39,117 40,118 41,119 40,120 40,121 39,122 38,123 37,124 36,125 35,126 34,127 34,128 33,129 32,130 31,131 30,132 29,133 28,134 28,135 27,136 26,137 25,137 24,137 23,136 22,135 21,134 20,133
39,107 39,106 40,105 41,104 42,103 43,102 44,101 45,100 45,99 46,98 47,97 48,97 49,98 50,99 51,100 52,101 53,102 54,103 55,104 56,105 57,106 58,107 59,108 60,109 60,110 59,111 58,112 57,113 56,114 55,115 54,115 53,116 52,117 51,117 50,117 49,118 48,118 47,119 46,119 45,118 44,117 44,116 44,115 44,114 44,113 43,112 42,111 41,110 40,109 40,108
4,183 5,182 6,182 7,182 8,183 9,184 10,184 11,184 12,184 13,184 14,184 15,184 16,184 17,183 18,182 18,181 19,180 20,180 21,181 22,182 23,183 23,184 24,185 25,186 26,187 25,188 25,189 25,190 25,191 25,192 24,193 23,194 22,195 21,196 20,197 19,198 18,199 17,200 16,201 15,200 14,199 14,198 14,197 13,196 12,195 11,194 12,193 11,192 10,191 9,191 8,190 7,189 6,188 5,187 4,186 4,185 4,184
165,194 165,193 166,192 167,191 168,190 169,191 170,190 171,191 172,192 173,193 174,192 175,191 176,190 177,189 178,189 179,189 180,189 181,190 182,191 183,192 184,193 185,194 186,195 187,196 188,197 189,198 190,199 191,200 192,200 193,201 194,202 195,203 196,204 196,205 195,206 194,207 193,208 192,208 191,209 190,210 189,211 189,212 189,213 190,214 191,215 191,216 190,217 189,218 188,218 189,219 190,220 189,221 188,222 187,223 186,224 185,225 184,224 184,223 184,222 183,221 182,220 181,219 180,219 179,219 178,219 177,218 176,217 175,217 174,216 175,215 176,214 177,213 178,212 179,211 178,210 177,209 176,208 175,207 174,206 173,205 174,204 173,203 172,202 171,201 170,200 169,200 168,199 167,198 166,197 165,196 165,195
37,86 38,85 39,85 40,84 41,84 42,85 43,86 44,87 45,88 46,89 47,90 48,90 49,89 50,90 51,91 51,92 50,93 49,94 48,94 47,95 46,95 45,96 44,96 43,96 42,96 41,95 40,94 40,93 41,92 41,91 40,90 40,89 39,88 38,87
202,105 202,104 203,103 204,102 205,101 206,100 207,99 208,99 209,99 210,99 211,100 211,101 210,102 210,103 210,104 210,105 209,106 209,107 208,108 207,109 206,109 205,109 204,108 203,107 202,106
35,9 36,8 37,7 38,6 39,5 40,4 41,3 41,2 42,1 43,0 44,0 45,0 46,0 47,0 48,0 49,0 50,0 51,0 52,0 53,0 54,0 55,0 56,0 57,0 58,0 59,1 59,2 59,3 58,4 57,4 56,4 55,4 54,3 53,3 52,3 51,3 50,3 49,3 48,4 47,5 46,6 45,7 45,8 45,9 44,10 43,11 42,12 41,13 40,12 39,12 38,12 37,12 36,11 35,10
109,42 108,41 107,40 107,39 108,38 109,37 110,37 111,37 112,36 113,35 114,35 115,35 116,35 117,35 118,36 119,37 119,38 119,39 119,40 118,41 117,42 116,43 115,44 114,45 113,45 112,44 111,43 110,43
0,79 0,78 0,77 1,76 0,75 0,74 1,73 2,72 2,71 3,70 4,71 5,72 6,73 7,73 8,72 9,71 10,71 11,70 12,70 13,69 14,68 15,68 16,67 17,67 18,67 19,68 20,69 21,70 22,71 23,72 24,73 25,74 26,75 25,76 24,77 23,78 22,78 22,79 21,80 20,81 19,81 18,81 17,80 16,80 15,79 14,79 13,79 12,79 11,80 10,80 9,80 8,80 7,79 6,79 5,80 4,81 3,82 2,82 1,83 0,82 0,81 0,80
162,66 161,65 162,64 163,63 164,62 165,61 166,60 167,60 168,60 169,59 170,60 171,60 172,60 173,60 174,59 175,58 176,57 177,56 178,55 179,54 180,53 181,52 182,51 183,50 184,50 185,50 186,51 186,52 186,53 186,54 186,55 186,56 186,57 186,58 187,59 188,60 187,61 186,62 185,63 184,64 183,65 182,66 182,67 181,68 180,68 179,69 178,68 177,68 176,68 175,68 174,69 174,70 173,71 172,71 171,70 170,70 169,69 168,68 167,67 166,66 165,66 164,67 163,67
200,117 201,116 202,116 203,117 204,118 205,119 206,120 207,120 208,120 209,121 210,121 211,121 212,122 212,123 212,124 211,125 210,125 209,125 208,124 207,123 206,122 205,122 204,122 203,122 202,122 201,122 200,121 199,120 198,119 199,118
37,150 38,149 38,148 38,147 38,146 38,145 38,144 38,143 39,142 40,141 41,140 42,139 43,138 43,137 43,136 42,135 41,134 40,133 40,132 40,131 41,130 42,129 43,129 44,129 45,129 46,129 47,129 48,129 49,130 50,131 51,131 52,131 53,131 54,132 55,133 55,134 54,135 54,136 54,137 55,138 54,139 53,140 52,141 51,142 50,143 49,144 49,145 49,146 49,147 48,148 47,149 46,150 45,151 44,152 43,153 42,153 41,154 40,154 39,154 38,153 37,152 38,151
162,1 163,0 164,1 164,2 164,3 163,4 162,3 161,2
78,246 78,245 79,244 80,243 81,242 82,242 83,241 84,241 85,241 86,241 87,242 88,242 89,243 90,244 89,245 88,246 87,247 86,247 85,248 84,249 83,249 82,249 81,249 80,249 79,249 78,248 78,247
143,164 143,163 144,162 145,162 146,162 147,162 148,163 149,164 150,165 149,166 148,167 147,167 146,166 145,166 144,165
184,29 185,28 186,28 187,27 188,26 189,26 190,26 191,27 192,27 193,26 194,26 195,25 196,25 197,25 198,25 199,26 200,27 201,28 202,29 201,30 200,30 199,31 198,32 197,33 196,34 195,34 194,34 193,34 192,34 191,33 190,33 189,33 188,33 187,32 186,32 185,31 184,30
135,149 135,148 136,147 137,147 138,146 139,146 140,145 141,145 142,146 143,147 144,148 144,149 144,150 143,151 142,152 141,153 140,154 139,153 138,152 137,151 136,150
221,199 222,198 223,198 224,199 225,200 226,201 227,201 228,201 229,200 230,200 231,199 232,198 233,197 234,196 235,196 236,196 237,196 238,197 238,198 238,199 239,200 240,200 241,201 242,202 243,203 243,204 244,205 244,206 244,207 244,208 244,209 244,210 243,211 242,211 241,211 240,210 239,209 238,208 237,207 236,206 235,206 234,206 233,206 232,206 231,206 230,206 229,206 228,206 227,207 226,207 225,207 224,207 223,206 222,206 221,206 220,205 220,204 219,203 218,202 219,201 220,200
85,60 85,59 86,58 87,57 88,57 89,57 90,57 91,57 92,58 93,57 94,57 95,57 96,57 97,57 98,57 99,57 100,57 101,56 102,56 103,55 104,55 105,54 106,54 107,54 108,55 108,56 109,57 108,58 107,59 106,60 106,61 105,62 104,63 103,64 102,65 101,66 102,67 103,68 104,69 103,70 102,71 101,71 100,71 99,71 98,72 97,71 96,72 95,73 94,74 93,75 92,75 91,75 90,76 89,75 88,74 87,73 86,72 85,71 84,70 83,69 82,68 81,67 81,66 82,65 83,64 83,63 83,62 84,61
213,50 212,49 213,48 214,47 215,46 216,46 217,45 218,45 219,45 220,46 220,47 220,48 220,49 220,50 219,51 219,52 219,53 218,54 217,54 216,54 215,53 214,52 213,51
58,113 59,112 60,113 59,114
206,32 205,31 204,30 204,29 205,28 206,27 206,26 207,25 208,24 207,23 207,22 207,21 206,20 205,19 206,18 207,17 208,16 209,15 210,14 211,13 212,12 213,11 214,11 215,11 216,11 217,11 218,11 219,12 220,13 220,14 220,15 220,16 220,17 219,18 219,19 219,20 219,21 218,22 218,23 219,24 220,25 220,26 220,27 220,28 220,29 219,30 218,31 218,32 219,33 218,34 217,35 216,36 215,37 214,38 213,39 212,40 211,41 210,41 209,41 208,40 207,39 206,38 205,37 205,36 205,35 205,34 205,33
139,219 140,218 141,217 142,216 143,216 144,216 145,216 146,217 147,218 148,219 149,220 148,221 147,222 146,223 145,222 144,223 143,223 142,223 141,222 141,221 140,220
180,174 181,173 182,173 183,172 184,172 185,172 186,173 187,174 188,175 189,175 190,175 191,175 192,175 193,175 194,174 195,173 196,174 197,175 197,176 196,177 195,178 194,178 193,179 192,180 191,180 190,180 189,180 188,180 187,179 186,180 185,181 185,182 184,183 183,183 182,184 181,183 180,182 179,181 178,180 177,179 177,178 176,177 177,176 178,175 179,175
74,195 74,194 75,193 76,193 77,192 78,191 79,191 80,190 81,189 81,188 82,187 83,188 84,189 85,190 86,191 87,192 88,193 89,194 90,195 91,196 90,197 89,198 88,198 87,199 86,199 85,199 84,198 83,198 82,197 81,197 80,198 79,199 78,200 77,201 76,201 75,200 74,199 74,198 74,197 74,196
188,202 189,201 190,201 191,200 192,200 193,201 194,202 193,203 192,204 191,204 190,204 189,203
104,69 103,68 104,67 105,66 106,65 107,64 108,64 109,65 110,65 111,66 112,67 111,68 110,69 109,70 108,71 107,71 106,71 105,70
178,130 178,129 179,128 180,127 181,126 182,127 183,128 184,129 185,129 186,129 187,129 188,128 189,128 190,128 191,128 192,129 192,130 192,131 191,132 190,133 189,134 189,135 189,136 188,137 187,138 186,138 185,138 184,138 183,137 182,137 181,136 180,135 179,134 178,133 177,132 177,131
40,159 40,158 41,157 42,156 43,155 44,154 45,153 46,152 47,151 48,150 48,149 49,148 49,147 49,146 49,145 49,144 50,143 51,144 52,145 53,146 54,147 55,148 54,149 55,149 56,150 57,151 57,152 56,153 55,154 54,155 53,156 52,157 51,158 50,159 49,160 48,161 47,161 46,162 45,162 44,162 43,162 42,162 41,161 40,160
59,175 60,174 61,173 61,172 62,171 62,170 63,169 63,168 64,167 65,166 66,166 67,166 68,166 69,166 70,167 71,168 71,169 72,170 72,171 71,172 70,173 69,174 68,175 67,176 66,177 65,178 64,178 63,178 62,177 61,178 60,177 59,176
229,222 230,221 231,220 232,220 233,220 234,221 234,222 234,223 234,224 234,225 233,226 232,226 231,225 230,224 229,223
197,187 197,186 198,185 198,184 197,183 197,182 198,181 199,180 200,179 201,178 202,178 203,178 204,179 204,180 204,181 204,182 205,183 206,184 207,185 208,186 208,187 208,188 207,189 207,190 206,191 205,192 204,192 203,191 202,191 201,190 200,189 199,190 198,189 197,188
238,45 237,44 238,43 239,42 240,41 241,40 242,39 243,38 244,37 245,37 246,37 247,37 248,36 249,37 249,38 249,39 249,40 248,41 247,42 248,43 248,44 248,45 249,46 249,47 249,48 248,49 247,48 246,48 245,48 244,48 243,47 242,47 241,47 240,46 239,46
26,62 27,61 28,60 29,60 30,61 31,61 32,62 33,62 34,62 35,62 36,62 37,63 38,64 38,65 39,66 38,67 37,68 36,69 35,70 34,71 33,72 32,73 31,74 30,74 29,73 28,72 27,71 28,70 28,69 28,68 28,67 27,66 28,65 28,64 27,63
189,48 188,47 187,46 186,45 186,44 187,43 187,42 188,41 189,40 190,39 191,38 192,38 193,38 194,38 195,39 196,40 196,41 197,42 198,42 199,41 200,40 201,39 202,40 203,40 204,41 204,42 203,43 202,44 202,45 201,46 201,47 200,48 200,49 199,50 198,49 197,50 196,50 195,50 194,50 193,49 192,49 191,49 190,49
0,53 0,52 1,51 2,50 3,50 4,50 5,50 6,50 7,50 8,50 9,50 10,50 11,51 12,51 13,52 14,53 15,54 16,55 17,56 18,57 19,58 20,59 21,60 22,61 23,62 22,63 21,63 22,64 21,65 20,66 19,66 18,66 17,66 16,66 15,66 14,66 13,66 12,65 11,64 10,63 9,62 8,61 7,61 6,60 5,59 4,58 3,57 2,56 1,55 0,54
219,45 218,44 219,43 220,42 221,41 222,40 223,39 224,38 225,39 225,40 226,41 226,42 226,43 226,44 225,45 224,46 223,46 222,46 221,46 220,46
224,27 225,26 226,25 227,25 228,25 229,25 230,25 231,24 232,25 233,24 234,23 235,22 236,21 237,20 238,19 239,20 239,21 240,22 241,23 242,24 243,25 244,26 245,27 246,28 247,28 248,28 249,29 249,30 249,31 249,32 248,33 247,33 246,33 245,32 244,32 243,31 242,31 241,31 240,31 239,31 238,31 237,32 236,33 235,34 234,35 233,35 232,34 231,33 230,32 229,31 228,31 227,31 226,30 225,29 224,28
88,88 89,87 90,86 91,86 92,86 93,86 94,85 95,85 96,85 97,86 98,87 99,87 100,87 101,88 100,89 99,90 98,91 97,92 96,92 95,92 94,92 93,91 92,90 91,90 90,89 89,89
4,69 4,68 4,67 5,66 6,65 7,65 8,66 9,67 8,68 7,69 6,70 5,71 4,70
187,168 186,167 185,166 185,165 186,164 186,163 187,162 188,162 189,161 190,160 191,159 192,158 193,158 194,158 195,158 196,158 197,158 198,158 199,158 200,158 201,158 202,158 203,157 204,157 205,156 206,155 207,154 208,155 209,156 209,157 209,158 209,159 208,160 207,161 206,161 205,162 204,163 204,164 203,165 202,166 201,166 200,167 199,167 198,168 197,168 196,168 195,169 194,169 193,170 192,170 191,170 190,170 189,169 188,169
167,218 168,217 169,216 170,216 171,216 172,217 171,218 170,218 169,219 168,219
154,184 154,183 155,182 156,181 157,182 158,183 159,184 160,185 161,186 160,187 159,187 158,188 157,188 156,187 155,186 154,185
99,123 100,122 101,122 102,122 103,122 104,123 104,124 104,125 103,126 102,127 101,126 100,126 99,125 99,124
199,23 198,22 199,21 200,20 201,19 202,19 203,19 204,19 205,20 206,20 207,21 207,22 207,23 208,24 207,25 206,26 205,26 204,25 203,25 202,24 201,24 200,24
117,214 118,213 119,214 118,215
205,134 206,133 207,132 208,133 209,134 210,135 210,136 211,137 212,138 213,139 214,140 213,141 212,141 211,142 210,142 209,142 208,141 207,140 206,140 205,139 204,138 203,137 203,136 204,135
220,4 220,3 221,2 222,2 223,1 224,1 225,2 226,2 227,2 228,1 229,0 230,0 231,0 232,0 233,0 234,1 234,2 234,3 233,4 233,5 232,6 231,7 230,6 229,6 228,5 227,5 226,6 225,6 224,7 223,7 222,7 221,6 220,5
88,205 89,204 90,203 91,202 92,201 93,200 94,199 95,198 96,198 97,197 98,197 99,197 100,198 101,199 101,200 100,201 99,202 98,203 97,204 97,205 96,206 95,207 94,208 93,209 92,210 91,210 90,209 89,208 88,207 88,206
72,174 73,173 74,174 73,175
