22,25 22,24 23,23 24,23 25,22 26,21 27,20 28,19 29,20 29,21 29,22 29,23 29,24 29,25 29,26 29,27 28,28 27,29 26,29 25,29 24,29 23,28 22,27 22,26
0,9 0,8 0,7 0,6 0,5 0,4 0,3 0,2 1,1 2,1 3,1 4,2 5,3 6,4 7,5 8,6 9,7 10,8 11,9 11,10 11,11 11,12 10,13 9,14 8,15 7,16 6,16 5,15 4,14 3,13 2,12 1,11 0,10
21,3 22,2 22,1 23,0 24,0 25,0 26,0 27,0 28,1 28,2 27,3 26,4 25,5 24,5 23,6 22,5 22,4
2,28 3,27 4,26 5,25 6,25 7,25 8,26 9,27 8,28 7,29 6,29 5,29 4,29 3,29
12,7 13,6 14,7 13,8
16,10 16,9 16,8 17,7 18,6 19,6 20,7 21,8 20,9 19,10 18,11 17,11
20,18 21,17 21,16 22,15 23,14 24,13 25,12 25,11 26,10 27,10 28,10 29,11 29,12 29,13 29,14 29,15 29,16 28,17 27,18 26,19 25,19 24,19 23,19 22,19 21,19
0,18 1,17 2,17 3,18 4,19 4,20 4,21 3,22 2,22 1,23 0,22 0,21 0,20 0,19
8,22 9,21 10,22 9,23
14,22 15,21 16,21 17,22 16,23 15,23
