60,109 61,108 62,107 63,106 64,105 65,104 66,103 67,102 68,101 69,100 69,99 68,98 68,97 68,96 68,95 68,94 69,93 70,92 71,91 72,90 73,89 74,88 75,89 76,89 77,89 78,88 79,87 80,86 81,85 82,85 83,85 84,85 85,85 86,85 87,85 88,85 89,85
48,15 47,16 46,17 45,18 44,17 43,17 42,16 41,17 40,18 39,18 38,19 37,20 36,21 35,22 34,23 33,24 32,25 31,26 30,27 29,28 28,28 27,28 26,28 25,28 24,28 23,28 22,28
51,17 50,18 49,19 48,20 47,21 46,22 47,23 48,24 48,25
245,249 244,248 243,248 242,248 241,248 240,248 239,248 238,249 237,249 236,249 235,248 234,248
152,112 151,111 150,110 149,109 148,108 147,107 146,106 145,105 144,104 143,103 142,102 141,101 140,100 139,99 138,99 137,98 136,97 135,96 134,95 133,94 132,93 131,92 131,91 131,90 132,89 133,88 134,87 135,86 135,85 136,84 137,83
66,70 65,69 65,68 65,67 64,66 63,65 62,65 61,65 60,65 59,65 58,65 57,65 56,65 55,65 54,65
0,86 0,87 0,88 1,89 2,89 3,89 4,89 5,89 6,89 7,89
180,190 181,191 182,191 183,192 184,193 185,194 186,195 187,196 188,197 189,198 190,199 191,200 192,201 193,202 194,203 195,204 195,205 194,206 194,207 194,208 195,209 195,210 194,211 193,212 192,213 191,214 190,215 189,216 188,217 187,218 186,219
124,0 125,1 126,1 127,2 128,3 129,4 130,5 130,6 131,7 132,8 133,9 134,10 135,9 136,9 137,8 138,9 139,9 140,10 139,11 139,12 139,13 140,14 141,15 142,16 142,17
18,85 19,84 20,83 21,82 22,81 23,80 24,79 23,78 22,78
126,6 125,7 124,8 123,9 124,10 125,11 126,12 127,13 128,14 129,15 130,16 131,17 132,18 133,19 134,20 134,21 134,22 134,23 134,24 135,25 136,26 137,27 138,28 139,28 140,28
59,177 60,176 59,175 58,174 57,173 56,172 55,171 54,170 53,169 52,169 51,168 50,167 49,166 48,165 47,164 46,163 45,164 44,164 43,163 42,162 41,161 40,160 39,160 38,160 37,160 36,160 35,160
0,35 1,34 2,33 3,32 4,31 5,30 5,29 5,28 6,27 7,28 8,29 9,29 10,29 11,29 12,29 13,29 14,29 15,29 16,29 17,29 18,29 19,29 20,29 21,28 22,29 23,29 24,29 25,29 26,29 27,29
150,215 151,216 152,217 153,218 154,218 155,219 156,220 157,221 158,221 159,220 160,219 161,218 162,218 163,218 164,219 165,220 166,221 166,222 165,223 164,224 164,225 163,226 162,227 162,228 161,229 161,230 160,231 159,232 158,233 157,233 156,234 155,235
216,109 215,110 214,111 213,112 212,113 211,114 211,115 212,116 213,117 214,117 215,118
128,13 129,14 130,15 130,16 131,17 132,18 133,19 134,20 134,21 135,22 136,23
102,205 103,204 104,203 105,202 105,201 105,200 104,199 103,198 102,197 101,196 100,195 99,195 98,195 97,194 96,193 97,192 96,191 96,190 95,189 94,188 93,187
34,18 34,17 35,16 36,15 37,15 38,16 39,15 40,15 41,15 42,15 43,15 44,15 45,15 46,15 47,15 48,15 49,15 50,15 51,15 52,15
148,249 148,248 149,247 150,246 151,245 152,244 153,243 154,243 155,243 156,243 157,242 158,241 159,240 160,239 161,238 162,237 161,236 160,235 159,234 158,233 157,232 156,231 155,230 155,229 154,228 153,227 153,226 153,225 153,224
138,80 137,79 137,78 137,77 137,76 137,75 137,74 137,73 137,72 138,71 139,71
130,78 130,79 131,80 132,81 133,81 134,81 135,81 136,81 137,81 138,81 139,81 140,81 141,81 142,81 143,81 144,81 145,81 146,81 147,81
5,244 6,243 6,242 7,241 8,240 9,239 10,238 11,237 12,236 13,235 14,234 14,233 13,232 12,231 11,230 10,229 10,228 10,227 10,226 10,225
8,244 9,244 10,244 11,243 12,242 13,241 14,240 15,239 16,239 17,239 18,239 19,239 20,239 21,240 22,239 23,239 24,239 25,239 26,238 27,239 28,239 29,239
23,121 22,120 21,120 20,119 19,118 18,117 17,117 16,116 15,116 14,115 13,114 13,113 12,112 11,111 10,110 10,109 9,108 9,107 8,106 7,105 7,104 6,103 5,102 4,103 3,104 2,104 1,104 0,103 0,102 0,101 0,100
67,37 66,38 65,39 66,40 67,41 67,42 67,43 67,44 68,45 69,46 70,47 71,48 70,49 69,50 68,51 67,52 66,53 65,54 66,55 67,56 68,57 69,58 69,59 70,60 70,61 70,62 70,63 71,64 72,64
210,12 209,13 208,14 207,15 206,16 205,16 204,16 203,16 202,16 201,16 200,16 199,16
41,47 40,48 40,49 40,50 41,51 42,52 43,53 44,54 45,55 46,56 47,57 47,58 46,59 46,60 45,61 45,62 44,63 44,64 44,65 44,66 45,67 45,68 46,69 47,70 48,71 49,72 50,73 51,74 52,75 53,76 54,76 55,76 56,76 57,76 58,76
203,190 202,189 201,188 200,187 200,186 201,185 202,184 202,183 203,182 204,181 205,180 205,179 206,178 207,177 208,176 209,175 210,174 211,173 212,173 213,174 214,174 215,174 216,173 216,172 216,171 216,170 215,169 214,168 213,167 212,166 211,165 212,164
114,84 113,83 112,82 111,81 110,80 109,79 108,78 107,77 106,76 105,75 105,74 105,73 104,72 103,71 102,70 101,70 100,69 99,68 98,67 97,66 96,65 95,64 94,63 93,62 93,61 94,60
204,116 203,117 202,118 201,119 200,120 199,120 198,121 197,121 196,122 195,123 196,124 197,125 198,126 199,127 200,128 200,129 201,130 202,131
123,240 124,239 125,238 126,237 127,236 128,235 129,234 130,233 131,232 132,231 133,230 134,229 135,228 136,227 137,226 138,225 139,224 140,223 139,222 138,221 137,220 136,219 135,218 135,217 134,216 133,215 132,215 131,216 130,215 129,215 128,215 127,215 126,215
178,167 177,166 176,165 175,164 174,163 173,162 172,161 171,160 170,159 169,158 168,157 167,157 166,156 165,155 164,154 163,153 162,152 161,151 162,150 163,149 164,148 163,147 163,146 162,145 162,144 162,143 161,142 160,141 159,140 158,139 157,138 156,137 155,137 154,137 153,137
191,111 192,111 193,110 194,109 195,108 196,107 196,106 196,105 196,104 196,103 197,102 197,101 198,100 199,99 200,98 201,97 201,96 202,95 203,94 204,93 205,92 206,91 206,90 207,89 208,88 209,88 210,88 211,88 212,88
246,139 246,140 246,141 246,142 246,143 246,144 246,145 246,146 246,147 246,148 246,149 245,150 244,151 243,152 242,153 241,154 240,155 239,156 238,156 237,156 236,156 235,155 234,156 233,156 232,156 231,155 230,155 229,155 228,155 227,155 226,156 225,156 224,156 223,156 222,156 221,156 220,156 219,156 218,156 217,156
124,41 125,42 126,43 127,44 128,43 129,43 130,42 131,42 132,42 133,43 134,44 135,45 136,46 137,47 138,48 139,49 140,50 141,49 142,50 143,51 144,52
76,99 77,98 78,97 79,96 78,95 77,94 76,93 76,92 76,91 75,90 74,89 73,89 72,89 71,89 70,89 69,89 68,89 67,89 66,89 65,89 64,89 63,89
143,228 143,227 142,226 141,225 140,224 139,223 138,222 137,221 136,220 135,219 134,218 133,217 132,217 131,217 130,216 129,216 128,215 127,214 126,213 125,212 124,211 123,210 122,210 121,210 120,210 119,210 118,210
154,141 153,140 152,139 151,138 150,137 149,136 148,135 147,134 146,133 145,132 144,133 143,134 142,134 141,134 140,133 139,132 138,131 137,130 136,129 135,128 134,127 133,126 132,125 131,124 130,123 129,122 128,121 127,121 126,120 126,119 127,118
62,78 61,77 60,77 59,76 58,75 57,74 56,73 55,72 54,71 53,70 52,69 51,69 50,69 49,70 48,70 47,70 46,69 45,68 45,67 44,66 44,65 44,64 44,63 45,62 45,61 46,60 46,59 47,58 48,57 49,56 49,55 49,54 50,53 51,52 52,51 53,50 54,49
155,70 156,69 157,69 158,68 159,67 160,66 161,66 162,67 163,67 164,68 165,69 166,69 167,69 168,69 169,69 170,69 171,69 172,69 173,69 174,69 175,69 176,69 177,70 178,70 179,70 180,69 181,69 182,69
200,188 199,189 198,190 197,191 196,191 195,191 194,191 193,191
246,0 245,0 244,0 243,0 242,1 241,2 240,3 239,4 239,5 240,6 241,7 242,8 243,9 243,10 244,11 245,12 245,13 245,14 245,15 246,16 247,17 248,18 249,19 249,20 249,21 249,22 248,23 247,23 246,24 246,25 247,26 248,26
50,23 50,24 51,25 52,26 53,27 53,28 54,29 55,30 56,31 57,32 57,33 58,34 59,35 60,36 61,37 62,38 63,39 64,39 65,39 66,40 67,41 68,42 69,42 70,42 71,42 72,42 73,42 74,42 75,42 76,42
114,206 115,205 116,204 117,203 117,202 118,201 119,200 120,199 121,198 122,198 123,198 124,198 125,197 126,196 127,195 128,194 128,193 129,192 130,191 131,190 130,189 129,188 128,187 127,186 126,185 125,184 125,183 125,182
173,210 174,211 175,212 176,213 177,214 178,214 179,214 180,214 181,214 182,214 183,214 184,214 185,214 186,214 187,214 188,214 189,214 190,214 191,214 192,214 193,214
205,29 204,28 203,27 202,26 201,25 200,24 199,23 198,22 197,22 196,22 195,21 194,21 193,21 192,21
151,69 150,68 149,67 148,66 147,65 146,64 146,63 146,62 146,61 145,60 144,59 143,58 142,57 141,56 140,55 139,55 138,54 137,53 136,52 135,51 134,50 133,49 132,48 133,47 133,46 134,45 134,44 133,43 132,42 131,42 130,42 129,43 128,43 127,43 126,43 125,43 124,43 123,43 122,43 121,43
167,201 168,200 167,199 166,198 165,197 165,196 164,195 163,194 162,193 161,192 160,191 159,192 158,192 157,191 156,190 155,190 154,189 153,189 152,188 151,187 150,186 149,186 148,187 147,186 146,186 145,186 144,186 143,186
182,145 181,144 180,143 179,143 178,142 177,141 176,140 175,139 174,138 173,137 172,136 172,135 173,134 173,133 173,132 172,131 171,130 170,129 169,128 168,127 167,126 166,125 165,124 164,124 163,124 162,124 161,123 160,123 159,122 159,121 160,120 161,119 162,118 163,117 164,116 164,115
135,130 134,131 133,132 132,133 131,134 130,135 129,136 128,137 127,138 126,138 125,138 124,137 123,137 122,137 121,137 120,138 119,138 118,138 117,138 116,138 115,138 114,138 113,138 112,138 111,138 110,138 109,138 108,138 107,138
148,218 147,217 146,216 145,215 144,214 143,213 142,212 141,211 141,210 141,209 140,208 139,207 138,206 137,205 137,204 137,203 137,202 136,201 136,200 137,199 138,198 139,197 139,196 138,195 138,194 137,193 137,192 136,191 135,190 134,189 133,189 132,189 131,189 130,189 129,189 128,189 127,189
57,35 56,34 57,33 58,32 59,31 60,30 60,29 61,28 62,27 63,26 64,25 65,24 66,24 67,24 68,24 69,24 70,23 71,22 72,22 73,21 74,20 75,19 76,18 77,17 78,16 79,15 80,14 81,13 82,12 83,12 84,12 85,12 86,12
67,201 68,200 69,199 70,199 71,200 72,201 73,202 74,201 75,200 76,199 77,199 78,198 79,198 80,197 81,196 82,196 83,196 84,196 85,196 86,196 87,196 88,196 89,196 90,196 91,196 92,196 93,196 94,196 95,196 96,196
172,110 171,109 170,108 169,107 168,106 167,105 166,104 165,103 164,102 163,101 162,100 161,99 160,98 159,97 159,96 158,95 157,94 156,93 155,92 154,91 153,90 152,89 151,88
6,229 7,230 8,230 9,230 10,231 11,231 12,232 13,233 14,233 15,233 16,233 17,233 18,233 19,233 20,233 21,233 22,233 23,233 24,233 25,233 26,233 27,233 28,233 29,233 30,233 31,233 32,233
169,159 170,160 171,161 172,162 173,163 174,164 175,165 176,166 177,167 178,168 179,169 180,170 181,171 182,172 182,173 183,174 184,175 185,176 185,177 186,178 187,179 188,179 189,179 190,179 191,179 192,179 193,179 194,179 195,179
182,191 183,192 184,193 185,194 186,195 187,196 188,197 189,198 190,199 191,200 192,201 193,202 194,203 193,204 192,205 191,206 190,207 190,208 190,209 189,210 188,211 187,212 186,213 186,214 185,215 184,215 183,216 182,216 181,216 180,216 179,216 178,216 177,216 176,216 175,216 174,216 173,216 172,216 171,216 170,216 169,216 168,216 167,216 166,216 165,216 164,217 163,216 162,216 161,216 160,216 159,216 158,216 157,216
219,108 219,107 219,106 220,105 221,104 221,103 222,102 223,101 224,100 225,100 226,100 227,100 228,100 229,100 230,100 231,100 232,100
78,39 77,38 76,37 75,36 74,35 73,35 72,34 71,33 70,32 69,31 68,31 67,30 66,29 65,28 64,27 63,26 62,25 61,24 60,23 59,22 58,21 57,20 56,19 55,18 54,17 53,16 52,15 51,14 52,13 53,13
19,20 20,21 21,22 22,23 23,24 24,25 25,26 26,27 27,28 28,29 29,30 30,31 31,30 32,30 33,30 34,31 35,32 36,33 36,34 37,35 38,36 38,37 39,38 40,39 41,40 41,41 42,42 43,43 44,43 45,43 46,43 47,43 48,42 48,41 48,40 48,39 47,38 48,37 49,36
26,89 27,88 27,87 28,86 29,86 30,86 31,86 32,86 33,87 34,87 35,87 36,88 37,89 37,90 38,91 39,90 40,90 41,91 42,90 43,89 44,88 45,87 46,86 47,86
2,172 3,171 4,170 5,169 6,168 7,167 8,166 9,165 10,164 11,163 10,162 9,161 8,160 7,159 7,158 7,157 6,156 6,155 5,154 4,153 3,153 2,152 1,151 1,150 0,149 1,148 2,147 3,146 4,145 4,144 3,143 2,142 1,142
62,14 61,14 60,15 59,16 58,17 57,18 56,19 57,20 58,21 59,22 60,23 60,24
27,134 28,133 28,132 28,131 27,130 26,129 25,128 24,127 24,126 24,125 24,124 24,123 23,122 22,121 21,120 20,119 19,119 18,119 17,119 16,119 15,119 14,119 13,119 12,119
1,123 2,122 3,121 3,120 4,119 5,118 4,117 3,116 2,115 2,114 2,113 2,112 2,111 1,110 0,110
243,10 242,11 241,11 240,11 239,12 238,13 237,13 236,14 235,15 234,16 233,17 232,18 231,19 230,20 229,21 228,22 227,23 228,24 228,25 228,26 228,27 227,28 228,29 227,30 226,31 225,32 224,33 223,34 222,35 221,36 220,37 219,38 218,38
201,105 200,104 199,103 198,102 197,101 196,100 195,99 194,99 193,98 192,97 191,96 190,95 189,94 188,93 187,92 186,92
103,218 104,219 103,220 102,221 101,222 100,223 99,224 98,225 97,226 96,227 95,228 94,229 93,230 92,230 91,230 90,230 89,231 88,231 87,231 86,231 85,230 84,230 83,231 82,232 82,233 83,234 84,234 85,234
109,70 108,69 107,68 106,67 105,66 104,65 103,64 102,63 101,62 102,61 103,60 104,59 105,58 106,57 106,56 107,55 107,54
114,59 113,58 114,57 115,56 116,55 117,54 118,53 119,52 120,52 121,51 122,50 123,49 123,48 124,47 125,46 126,45 127,44 128,43 129,42 130,42
221,177 220,178 219,179 218,180 217,181 216,182 215,183 214,183 213,184 212,185 211,186 210,187 209,188 208,189 207,190 206,190 205,190 204,190 203,190 202,190 201,189 200,190 199,190 198,190 197,190 196,190 195,190 194,190 193,190 192,190 191,190
54,4 55,5 56,5 57,5 58,5 59,5 60,6 60,7 59,8 58,9 57,10 56,11 55,12 54,13 55,14 55,15 56,16 56,17 56,18 55,19 54,20 54,21
159,40 160,41 161,42 162,41 163,41 164,40 165,40 166,41 166,42 167,43 168,44 169,45 170,46 170,47 171,48 172,49 173,50 174,50 175,49 176,48 177,48 178,48 179,48 180,49 181,49 182,50 183,51 184,52 184,53 184,54 184,55 184,56 185,57 186,58 187,58
176,223 177,224 178,224 179,223 180,222 181,221 182,220 183,219 184,218 185,217 186,216 187,215 188,215 189,215
137,3 136,4 135,5 136,6 137,7 138,8 139,9 140,10 141,11 142,11 143,12 144,13 145,14 146,15 147,16 148,17 149,18 150,19 151,19 152,19 153,19 154,19 155,19 156,19 157,19
236,224 237,225 238,226 239,227 240,227 241,227 242,227 243,228 244,229 245,230 246,231 247,232 246,233 246,234 246,235 246,236 246,237 246,238 246,239 246,240 246,241 246,242 246,243 246,244 246,245 247,246 248,246 249,246
200,14 199,15 199,16 200,17 201,18 202,19 202,20 202,21 203,22 203,23 203,24 204,25 204,26 204,27 204,28 203,29 204,30 204,31 204,32 204,33 203,34 203,35 204,36 205,37
115,164 116,165 117,165 118,166 119,167 120,168 121,169 122,169 123,170 124,170 125,171 126,172 127,172 128,172 129,172 130,172 131,172 132,172 133,172 134,172 135,172 136,172 137,172 138,172 139,172 140,172 141,172 142,172
194,240 193,240 192,241 191,242 190,243 189,244 188,245 187,246 186,247 185,247 184,246 183,245 183,244 183,243 182,242 181,241 181,240 180,239 179,238 179,237 178,236 178,235
72,25 71,24 70,23 70,22 70,21 70,20 69,19 68,18 67,17 66,16 65,15 64,14 63,13 62,12 61,11 60,11 59,10 58,9 59,8 60,7 60,6 59,5 58,4 57,3 57,2 58,1
23,121 24,120 25,119 26,118 25,117 24,116 23,115 22,114 21,113 21,112 21,111 20,110 20,109 19,108 18,107
145,240 145,239 146,238 147,237 148,236 149,235 150,234 149,233 148,232 147,231 146,230
202,76 201,76 200,77 199,78 198,79 197,80 196,81 195,82 194,83 193,84 192,85 191,86 191,87 190,88 189,89 188,90 187,91 186,91
138,51 137,52 137,53 138,54 139,55 140,56 141,57 142,58 143,58 144,59 145,60 146,60 147,60 148,60 149,60 150,60 151,60 152,60 153,60 154,60 155,60
166,141 167,142 168,143 169,144 169,145 169,146 169,147 170,148 171,149 172,149 173,149 174,149 175,149 176,150 177,151 178,152 179,153 180,153 181,154 182,155 183,156 183,157 183,158 184,159 184,160 185,161 185,162 186,163 187,164 188,165 189,166 190,167 191,167 192,167 193,168 194,169 195,169
245,122 244,121 243,120 242,119 242,118 242,117 241,116 240,115 239,114 238,113 237,112 236,112 235,111 234,110 233,109 232,108 231,107 230,106 229,106 228,106 227,106 226,105 225,105 224,105
33,227 33,226 33,225 34,224 35,224 36,224 37,224 38,224 39,224 40,224 41,224 42,224 43,224 44,224 45,224 46,224 47,224 48,224 49,224 50,224 51,224 52,224 53,224 54,224 55,224 56,224 57,224 58,224
134,108 133,107 132,106 131,105 130,104 129,103 128,102 127,101 126,100 125,99 124,98 125,97 126,96 127,95 128,94 129,93 130,92 131,91 130,90 129,89 128,88 127,87 126,86 125,85 124,86 123,87 122,86 121,85 120,84 119,83 118,82 117,81 116,80 115,79 114,78 113,78 112,78 111,78 110,78 109,78 108,78
178,6 177,6 176,6 175,6 174,6 173,6 172,6 171,6 170,5 169,6 168,6 167,6 166,6 165,6
101,10 100,11 99,12 98,13 97,14 96,14 95,13 94,14
212,243 213,244 214,245 215,246 216,247 217,248 218,249 219,249 220,249 221,248 222,248 223,248 224,248 225,248 226,248 227,248 228,248 229,248 230,248 231,248 232,248 233,248 234,248
66,223 67,222 68,221 69,220 70,220 71,220 72,220 73,220 74,220 75,220 76,220 77,220 78,220 79,220 80,220 81,221 82,222 83,222 84,222 85,221 86,220 87,220
173,205 174,204 175,203 176,202 177,203 178,204 179,205 180,205 181,206 182,207 183,208 184,209 185,210 186,210 187,209 188,208 189,207 190,206 191,205 192,204 192,203 192,202 191,201 190,200 189,199 188,198 187,197 187,196 186,195 185,194 184,193 183,192 182,193 181,192 180,191 179,190 178,189 177,188 176,187
241,157 240,156 239,156 238,155 237,154 236,154 235,153 234,153 233,153 232,152 231,151 230,150 229,149 228,148 227,147 226,146 225,145 224,144 223,143 222,142 221,141 220,140 219,139 219,138 219,137 218,136 217,135 216,134 215,133 214,132 213,131 212,131
49,48 50,49 51,50 52,51 53,52 54,53 55,53 56,52 57,53 58,54 59,55 60,56 61,57 62,58 63,58 64,59 64,60 65,61 66,60 67,59 68,59 69,59 70,60 71,61 72,62 73,63 74,64 75,64 76,64 77,64
100,131 100,130 99,129 98,129 97,128 96,128 95,127 94,126 93,126 92,127 91,128 90,129 89,130 88,131 87,132 86,131 85,130 85,129 85,128 85,127 86,126 85,125 84,124 83,123 82,122 81,121 80,120 80,119 79,118 78,117 78,116 78,115 77,114
138,152 139,151 139,150 140,149 139,148 138,147 138,146 137,145 136,144 135,143 134,142 133,141 132,141 131,141 130,141 129,141 128,141 127,141 126,141 125,142 124,142 123,141 122,141 121,141 120,141 119,141 118,141 117,141 116,142 115,141 114,141
30,44 29,43 28,42 27,42 26,42 25,42 24,42 23,42 22,41 21,42 20,42 19,42 18,42 17,42 16,42
45,110 46,109 47,108 48,107 49,106 50,105 51,104 52,103 52,102 52,101 51,100 50,99 49,98 48,98
166,178 165,177 166,176 167,175 168,174 169,173 170,173 171,173 172,173 173,173 174,173 175,173 176,173 177,172 177,171 176,170 175,169 174,168 173,167 172,166 171,165 170,164 170,163 170,162 170,161 170,160 170,159 171,158 172,157 173,156 174,155 175,155 176,154 177,153
