114,234 115,233 116,234 116,235 115,236 114,235
45,130 46,129 47,128 48,129 49,130 50,131 51,132 52,133 53,134 54,135 53,136 52,137 51,138 50,139 49,138 48,138 47,138 46,137 45,136 45,135 45,134 45,133 45,132 45,131
216,7 216,6 217,5 218,5 219,5 220,6 221,6 222,7 223,7 224,7 225,7 226,6 227,6 228,6 229,6 230,7 230,8 230,9 229,10 229,11 228,12 227,12 226,13 225,12 224,12 223,12 222,11 221,11 220,10 219,10 218,10 217,9 216,9 215,8
63,139 64,138 65,137 66,136 67,135 67,134 68,133 69,132 70,131 71,131 72,130 73,131 74,131 75,132 76,133 77,133 78,132 79,131 80,130 81,129 82,128 83,127 84,127 85,128 86,129 87,130 88,131 89,132 90,133 91,134 91,135 90,136 89,137 90,138 89,139 88,140 87,141 86,142 85,143 84,144 83,145 82,145 81,146 80,146 79,147 78,147 77,148 76,148 75,149 74,150 73,151 72,152 71,153 70,152 69,151 68,150 68,149 68,148 68,147 68,146 69,145 68,144 67,143 66,142 65,141 64,140
210,72 211,71 212,70 213,70 214,70 215,69 216,68 217,67 218,66 219,66 220,67 221,67 222,68 223,69 224,70 224,71 223,72 222,73 221,74 220,74 219,74 218,74 217,74 216,75 215,76 214,76 213,77 212,76 211,75 210,74 209,73
120,27 121,26 122,27 121,28
63,109 64,108 65,107 66,106 67,105 68,104 69,103 70,102 71,101 72,101 73,100 74,99 75,98 75,97 75,96 75,95 75,94 74,93 74,92 73,91 73,90 74,89 75,89 76,89 77,90 78,91 79,92 80,93 81,94 82,95 83,96 84,97 85,98 86,99 85,100 85,101 86,102 86,103 85,104 84,105 83,106 82,106 82,107 81,108 80,109 79,108 78,108 77,108 76,107 75,107 74,107 73,107 72,108 71,108 70,109 69,110 68,111 67,112 66,113 65,112 65,111 64,110
71,248 72,247 73,246 73,245 73,244 73,243 74,242 75,241 76,241 77,241 78,241 79,242 80,243 81,244 82,245 81,246 82,247 81,248 80,249 79,249 78,249 77,249 76,249 75,249 74,249 73,249 72,249
219,163 218,162 217,161 218,160 219,159 220,158 221,157 221,156 221,155 220,154 220,153 221,152 222,151 223,150 224,149 225,148 226,147 227,146 228,145 229,144 230,143 231,142 232,142 233,141 234,141 235,142 236,142 237,143 238,144 238,145 239,146 239,147 240,148 240,149 240,150 239,151 239,152 238,153 237,154 238,155 239,156 240,157 241,158 242,159 243,160 244,161 245,162 245,163 244,164 243,165 243,166 242,167 242,168 241,169 240,169 239,169 238,168 237,167 236,166 235,165 234,164 233,163 232,162 231,162 230,162 229,162 228,162 227,162 226,163 225,164 224,165 223,166 222,166 221,165 220,165 219,164
206,177 205,176 206,175 207,174 208,173 209,173 210,173 211,173 212,173 213,173 214,172 215,171 216,170 217,170 218,170 219,170 220,170 221,171 222,172 223,173 222,174 221,175 220,176 219,176 218,176 217,177 216,178 215,179 214,180 213,180 212,180 211,180 210,180 209,179 208,179 207,178
230,192 229,191 228,190 227,189 228,188 229,187 229,186 229,185 230,184 230,183 231,182 232,181 233,180 234,179 235,178 236,178 237,178 238,178 239,179 239,180 240,181 241,182 241,183 241,184 241,185 242,186 243,187 244,188 245,189 245,190 245,191 245,192 246,193 247,194 247,195 247,196 248,197 249,198 249,199 249,200 249,201 249,202 249,203 248,204 247,203 246,203 245,203 244,203 243,203 242,203 241,204 240,205 239,204 238,203 237,203 236,203 235,202 234,201 233,200 232,199 231,198 230,197 229,196 228,195 228,194 229,193
225,235 226,234 227,233 228,232 229,231 229,230 229,229 228,228 227,227 227,226 228,225 229,225 230,225 231,225 232,225 233,226 234,227 234,228 235,229 236,230 236,231 236,232 236,233 237,234 236,235 235,235 234,236 233,236 232,236 231,237 230,237 229,238 228,239 227,239 226,238 225,237 225,236
140,185 141,184 141,183 142,182 143,181 143,180 144,179 145,179 146,178 147,178 148,179 149,180 150,181 151,182 151,183 152,184 153,185 153,186 152,187 151,188 150,189 149,190 148,191 147,192 146,192 145,192 144,192 143,191 142,190 141,189 141,188 141,187 141,186
126,91 126,90 127,89 128,88 129,87 130,86 131,86 132,85 133,85 134,85 135,86 136,87 136,88 136,89 136,90 136,91 136,92 136,93 136,94 135,95 134,96 133,97 132,96 131,95 130,94 129,93 128,92 127,92
226,180 225,179 226,178 227,177 228,176 229,175 230,176 231,176 232,177 233,178 233,179 232,180 231,181 230,181 229,182 228,181 227,181
0,125 0,124 0,123 1,122 2,121 3,120 4,119 5,118 6,117 7,118 8,119 9,120 10,121 11,122 12,123 11,124 10,125 9,126 8,127 7,127 6,128 5,129 4,128 3,127 2,126 1,126
215,118 214,117 214,116 213,115 213,114 214,113 215,112 216,111 217,110 218,109 219,110 220,110 221,111 222,111 223,111 224,112 225,112 226,113 226,114 226,115 226,116 226,117 226,118 226,119 226,120 226,121 226,122 226,123 225,124 224,125 223,125 222,124 221,123 220,122 219,121 218,121 217,121 216,120 215,119
40,155 40,154 41,153 41,152 42,151 43,150 44,150 45,151 46,152 47,153 48,154 49,154 50,154 51,154 52,154 53,153 54,153 55,153 56,153 57,154 58,154 59,155 58,156 57,157 56,158 55,159 54,160 53,160 52,161 51,162 50,161 50,160 49,159 48,158 47,158 46,158 45,158 44,158 43,157 42,157 41,156
2,50 3,49 4,50 3,51
87,81 88,80 89,79 90,79 91,79 92,79 93,80 92,81 91,82 91,83 90,84 89,84 88,84 87,83 86,82
210,60 211,59 212,58 213,58 214,57 215,58 216,59 217,60 218,60 219,60 220,61 219,62 218,62 217,62 216,62 215,63 214,63 213,64 212,64 211,63 210,62 209,61
66,168 67,167 67,166 68,165 69,165 70,165 71,165 72,166 73,167 73,168 72,169 71,170 70,170 69,169 68,169 67,169
73,55 72,54 73,53 74,52 75,51 76,50 77,51 78,51 79,51 80,51 81,50 82,49 83,48 84,47 85,46 86,47 87,48 87,49 86,50 85,51 85,52 86,53 87,54 88,55 89,56 90,57 90,58 91,59 92,60 93,61 93,62 93,63 92,64 91,64 90,64 89,64 88,64 87,64 86,64 85,64 84,64 83,64 82,63 81,63 80,63 79,63 78,63 77,62 76,61 75,60 74,59 73,58 72,57 72,56
63,95 63,94 64,93 65,93 66,92 67,93 68,94 69,95 68,96 67,97 66,98 65,98 64,97 63,96
217,43 217,42 218,41 219,40 220,41 221,41 222,42 223,43 224,44 225,44 226,44 227,45 228,46 228,47 228,48 228,49 227,50 226,51 225,51 224,50 223,49 222,48 221,47 220,46 219,45 218,44
100,81 99,80 98,79 99,78 100,77 101,76 102,77 103,76 103,75 103,74 104,73 103,72 104,71 105,70 106,69 107,68 108,67 109,67 110,67 111,67 112,67 113,66 114,66 115,65 116,65 117,64 118,64 119,64 120,65 121,66 122,67 121,68 120,69 119,70 118,71 117,72 116,73 117,74 117,75 116,76 115,77 114,78 113,79 112,80 112,81 113,82 112,83 113,84 112,85 111,86 110,86 109,86 108,87 108,88 107,89 106,89 105,88 104,88 103,87 102,86 101,85 100,84 99,83 99,82
21,218 21,217 21,216 21,215 21,214 21,213 21,212 22,211 23,210 24,209 25,208 26,208 27,207 28,206 29,206 30,206 31,206 32,206 33,207 34,208 35,209 36,210 37,211 38,212 38,213 37,214 36,215 37,216 37,217 37,218 37,219 37,220 37,221 37,222 37,223 37,224 37,225 36,226 35,227 34,228 33,229 33,230 34,230 35,231 36,232 37,233 36,234 35,235 34,236 33,237 32,238 31,239 30,240 29,241 28,240 27,240 26,239 26,238 26,237 25,236 24,235 23,235 22,235 21,234 21,233 22,232 22,231 23,230 23,229 24,228 23,227 23,226 22,225 21,224 21,223 21,222 21,221 21,220 21,219
0,241 0,240 1,239 2,238 2,237 1,236 1,235 0,234 1,233 2,232 3,231 4,231 5,230 6,230 7,230 8,231 9,231 10,232 11,233 12,234 13,235 14,236 15,237 16,238 17,239 18,240 17,241 16,242 15,243 14,244 14,245 14,246 13,247 12,248 11,249 10,249 9,249 8,249 7,249 6,249 5,249 4,249 3,249 2,248 1,247 1,246 0,245 0,244 0,243 0,242
115,52 114,51 113,50 112,49 113,48 114,47 114,46 115,45 116,44 116,43 117,42 118,42 119,41 118,40 118,39 119,38 120,37 121,36 122,35 123,34 124,33 125,32 126,32 127,32 128,32 129,32 130,31 131,31 132,30 133,30 134,29 135,29 136,30 137,31 138,32 139,33 138,34 137,35 136,36 136,37 135,38 135,39 134,40 133,41 132,42 132,43 131,44 131,45 131,46 130,47 130,48 130,49 129,50 128,51 127,52 126,52 125,52 124,52 123,52 122,51 121,52 120,53 120,54 119,55 118,55 117,55 116,54 115,53
178,176 179,175 180,175 181,176 182,176 183,176 184,176 185,175 186,174 187,173 188,172 189,172 190,171 191,170 192,170 193,170 194,171 194,172 195,173 195,174 196,175 197,176 197,177 197,178 196,179 195,180 194,180 193,179 192,178 191,178 190,178 189,179 188,179 187,180 186,180 185,181 184,181 183,181 182,181 181,180 180,179 179,178 178,177
147,33 147,32 148,31 149,31 150,31 151,31 152,32 153,32 154,31 155,30 156,29 157,28 158,27 159,26 160,25 161,25 162,25 163,24 164,24 165,24 166,24 167,25 168,26 169,27 168,28 168,29 168,30 168,31 168,32 168,33 168,34 168,35 168,36 168,37 169,38 170,39 169,40 169,41 169,42 169,43 169,44 169,45 170,46 170,47 171,48 172,49 173,50 174,51 175,52 176,53 177,54 178,55 179,56 180,57 180,58 180,59 180,60 179,61 178,62 177,63 176,63 175,64 174,64 173,64 172,63 171,62 170,61 169,60 168,60 167,60 166,60 165,60 164,61 163,60 162,60 161,61 160,60 159,60 158,60 157,60 156,60 155,60 154,59 153,58 152,57 151,56 150,55 149,54 148,53 147,52 147,51 146,50 146,49 145,48 144,47 143,46 142,45 143,44 144,43 144,42 143,41 142,40 141,39 142,38 143,37 144,36 145,35 146,34
195,77 196,76 197,77 198,78 199,79 200,80 200,81 199,82 199,83 198,84 197,83 196,83 195,82 194,81 193,80 193,79 194,78
31,198 32,197 33,196 34,195 35,195 36,195 37,195 38,194 39,193 40,192 41,193 42,193 43,194 43,195 44,196 43,197 42,198 41,199 40,200 39,201 38,202 37,203 36,204 35,204 34,203 33,202 32,201 31,200 31,199
63,1 64,0 65,0 66,0 67,0 68,0 69,0 70,0 71,0 72,0 73,0 74,0 75,0 76,0 77,1 76,2 75,2 74,3 73,3 72,4 71,5 70,6 70,7 69,8 68,9 67,9 66,9 65,8 64,7 63,6 62,5 61,4 61,3 62,2
135,152 135,151 135,150 136,149 137,149 138,148 139,148 140,148 141,147 142,148 143,149 144,150 143,151 143,152 142,153 141,154 140,154 139,155 138,155 137,155 136,154 135,153
95,130 95,129 96,128 96,127 97,126 98,125 99,125 100,125 101,125 102,126 103,127 104,128 105,129 106,130 105,131 104,132 103,133 103,134 102,135 101,135 100,135 99,135 98,134 97,133 96,132 96,131
109,230 109,229 109,228 109,227 110,226 111,226 112,226 113,227 114,227 115,227 116,227 117,227 118,227 119,227 120,228 121,229 122,229 123,230 124,231 125,232 126,233 127,234 128,235 129,235 130,236 130,237 129,238 128,239 127,240 126,241 125,241 124,241 123,240 122,240 121,240 120,239 119,239 118,238 117,237 116,236 115,236 114,235 113,234 112,233 111,232 110,231
153,70 154,69 155,70 154,71
166,123 165,122 164,121 165,120 166,119 167,118 168,117 169,116 170,115 171,115 172,115 173,115 174,115 175,115 176,115 177,115 178,115 179,114 180,113 181,112 182,112 183,111 184,111 185,110 186,111 187,112 187,113 188,114 189,115 190,115 191,115 192,115 193,114 194,113 195,114 196,115 196,116 196,117 195,118 194,119 193,119 192,119 191,120 190,121 189,122 189,123 188,124 188,125 188,126 187,127 187,128 186,129 187,130 186,131 186,132 187,133 187,134 186,135 185,136 184,137 183,138 183,139 183,140 183,141 182,142 181,143 180,144 179,143 178,142 177,141 176,140 175,139 174,140 173,139 172,139 171,139 170,138 169,138 168,137 167,136 166,135 165,134 164,133 164,132 164,131 164,130 164,129 164,128 164,127 163,126 164,125 165,124
24,166 24,165 25,164 26,163 27,162 28,161 29,160 30,160 31,159 32,159 33,159 34,159 35,159 36,160 37,161 37,162 36,163 35,164 34,165 33,166 32,167 31,168 30,169 29,170 28,170 27,170 26,169 25,169 24,168 24,167
151,120 150,119 149,118 150,117 151,116 152,115 153,114 154,113 155,112 155,111 156,110 157,109 158,108 159,107 159,106 159,105 160,104 161,103 162,102 163,101 164,100 165,99 166,98 167,97 168,97 169,98 169,99 169,100 169,101 169,102 168,103 167,104 167,105 166,106 166,107 167,108 167,109 167,110 168,111 167,112 166,113 165,114 164,115 163,116 162,117 162,118 162,119 161,120 161,121 160,122 159,121 158,122 157,122 156,122 155,123 154,123 153,124 152,124 151,123 151,122 150,121
79,186 80,185 81,186 80,187
117,170 117,169 118,168 119,169 120,170 121,171 122,172 123,172 124,173 125,174 126,175 127,176 128,177 129,178 130,179 131,180 132,181 133,181 134,182 135,183 136,184 136,185 135,186 134,187 133,187 132,187 131,187 130,186 129,185 128,185 127,185 126,185 125,184 124,183 123,182 122,181 121,180 120,179 119,178 119,177 119,176 118,175 118,174 117,173 117,172 117,171
129,136 129,135 130,134 130,133 130,132 131,131 131,130 132,129 133,128 134,128 135,128 136,129 137,129 138,130 139,130 140,131 141,132 142,133 141,134 140,135 139,135 138,135 137,135 136,136 135,137 135,138 135,139 134,140 133,141 132,141 131,140 130,139 130,138 129,137
147,147 148,146 148,145 148,144 148,143 148,142 148,141 148,140 149,139 150,140 151,141 151,142 151,143 152,144 153,145 154,146 155,147 156,148 156,149 156,150 155,151 154,151 153,150 152,150 151,150 150,150 149,149 148,148
17,7 18,6 19,5 20,5 21,4 22,3 23,2 24,1 25,0 26,0 27,0 28,0 29,1 29,2 29,3 29,4 30,5 30,6 31,7 32,8 32,9 33,10 34,11 35,12 36,13 36,14 36,15 36,16 35,17 34,18 33,19 33,20 33,21 33,22 34,23 33,24 32,24 31,25 30,25 29,24 28,23 27,22 27,21 26,20 25,19 25,18 24,17 23,16 23,15 22,14 21,13 20,12 19,11 18,10 17,9 16,8
172,33 171,32 171,31 172,30 173,29 174,28 175,28 176,28 177,28 178,29 179,30 180,31 181,32 181,33 180,34 179,35 178,35 177,36 176,36 175,36 174,36 173,35 172,34
9,143 9,142 10,141 11,140 12,139 13,138 14,137 15,137 16,137 17,138 18,139 19,140 19,141 18,142 17,142 16,142 15,142 14,143 13,143 12,144 11,144 10,145 9,144
63,215 63,214 64,213 65,212 66,212 67,213 68,213 69,214 70,215 71,216 72,217 73,217 74,218 75,218 76,219 77,220 78,220 79,220 80,220 81,221 82,222 83,223 84,223 85,224 86,225 87,225 88,224 89,224 90,223 91,223 92,224 93,225 94,226 95,227 95,228 94,229 93,230 93,231 93,232 92,233 91,234 90,235 89,235 88,235 87,236 86,236 85,236 84,236 83,236 82,236 81,236 80,237 79,237 78,238 77,238 76,238 75,237 74,236 74,235 75,234 76,233 77,232 78,231 77,230 76,229 75,228 74,227 73,226 72,225 71,224 70,223 69,222 68,221 67,220 66,219 65,218 64,217 63,216
101,43 100,42 101,41 102,40 103,39 104,39 105,39 106,39 107,39 108,40 109,40 110,40 111,41 112,42 113,43 113,44 112,45 111,45 110,45 109,44 108,44 107,44 106,44 105,45 104,45 103,45 102,45 101,44
157,94 158,93 159,92 160,91 161,91 162,90 163,90 164,90 165,90 166,90 167,91 167,92 166,93 166,94 166,95 165,96 164,95 163,96 162,96 161,96 160,97 159,97 158,97 157,96 156,95
178,190 178,189 179,188 179,187 180,186 181,185 182,184 183,184 184,184 185,184 186,184 187,183 188,183 189,183 190,183 191,182 192,182 193,183 194,184 194,185 193,186 192,186 191,187 190,187 189,188 188,189 187,190 186,190 185,190 184,191 183,192 182,191 181,191 180,191 179,191
141,89 140,88 140,87 141,86 142,85 143,84 144,83 145,82 146,82 147,83 147,84 147,85 147,86 148,87 149,88 148,89 149,90 150,91 150,92 149,93 148,93 147,94 146,94 145,94 144,94 143,94 142,93 141,92 140,92 139,91 140,90
28,117 29,116 30,115 31,114 32,113 32,112 33,111 32,110 33,109 33,108 33,107 33,106 33,105 33,104 34,103 35,102 36,102 37,101 38,100 39,99 40,98 41,98 42,98 43,99 44,100 45,101 46,102 47,103 48,104 49,105 50,106 51,107 52,108 53,109 54,110 55,111 56,112 57,113 58,114 59,115 60,116 61,116 62,117 63,118 64,119 65,120 64,121 63,122 62,123 61,124 60,125 59,126 58,125 57,125 56,124 55,124 54,124 53,124 52,124 51,124 50,124 49,124 48,124 47,124 46,124 45,124 44,124 43,124 42,124 41,124 40,124 39,124 38,124 37,124 36,124 35,124 34,123 33,122 32,121 31,120 30,119 29,118
0,2 0,1 1,0 2,0 3,1 4,2 3,3 3,4 2,5 2,6 1,7 0,6 0,5 0,4 0,3
103,242 103,241 104,240 105,240 106,240 107,239 108,239 109,239 110,240 111,241 112,242 113,243 114,244 113,245 112,245 111,245 110,245 109,245 108,245 107,245 106,245 105,244 104,243
26,190 27,189 27,188 28,187 29,186 30,185 31,185 32,185 33,184 34,183 35,183 36,183 37,183 38,183 39,184 39,185 38,186 37,187 36,188 35,189 34,188 33,189 32,190 32,191 31,192 30,193 29,193 28,192 27,192 26,191
169,153 170,152 171,151 172,150 173,149 174,149 175,148 176,148 177,147 178,146 179,145 180,146 181,147 181,148 180,149 180,150 180,151 180,152 180,153 180,154 180,155 181,156 181,157 180,158 180,159 180,160 180,161 180,162 180,163 180,164 180,165 181,166 182,167 183,168 184,169 184,170 183,171 182,171 181,171 180,171 179,171 178,171 177,171 176,170 175,170 174,170 173,170 172,170 171,169 170,168 170,167 170,166 170,165 170,164 170,163 170,162 170,161 170,160 170,159 170,158 170,157 170,156 169,155 169,154
65,83 66,82 67,83 66,84
240,235 239,235 238,234 237,233 238,232 239,231 240,230 241,229 242,228 243,227 244,227 245,227 246,226 247,225 248,226 249,227 249,228 248,229 248,230 247,231 247,232 247,233 247,234 246,235 245,236 244,236 243,237 242,237 241,236
20,244 20,243 21,242 22,241 23,241 24,241 25,241 26,242 27,243 28,243 29,244 30,245 29,246 29,247 28,248 27,249 26,249 25,249 24,248 23,247 22,247 21,246 21,245
138,229 139,228 139,227 139,226 138,225 139,224 140,223 141,222 141,221 141,220 141,219 142,218 142,217 142,216 142,215 142,214 142,213 142,212 143,211 143,210 144,209 145,208 146,208 147,208 148,209 149,210 150,211 151,212 152,213 153,214 154,214 155,214 156,214 157,214 158,214 159,214 160,214 161,214 162,214 163,213 164,213 165,213 166,214 167,215 167,216 168,217 168,218 167,219 166,220 165,221 164,222 163,222 162,222 161,222 160,221 159,221 158,221 157,220 156,220 155,219 154,219 153,219 152,219 151,220 150,221 149,222 148,223 147,224 146,225 145,226 144,227 143,228 142,229 141,230 140,231 139,230
216,197 215,196 215,195 216,194 217,193 218,192 219,191 220,191 221,191 222,191 223,192 224,192 225,193 226,194 227,195 228,196 229,197 230,198 231,199 231,200 231,201 231,202 230,203 229,203 228,204 227,203 226,202 225,201 224,201 223,200 222,200 221,200 220,200 219,200 218,199 217,198
131,203 131,202 131,201 132,200 133,199 134,199 135,200 136,201 136,202 135,203 134,203 133,203 132,204
116,216 116,215 117,214 117,213 118,212 119,212 120,212 121,213 120,214 119,215 118,216 117,217
203,33 202,32 202,31 203,30 203,29 204,28 205,29 206,29 207,30 208,30 209,30 210,30 211,31 212,31 213,32 214,33 214,34 215,35 216,36 217,37 217,38 216,39 215,39 214,39 213,39 212,40 211,40 210,41 209,42 208,43 207,42 206,41 205,40 204,39 203,38 203,37 202,36 201,35 202,34
91,195 91,194 92,193 93,192 94,191 95,190 96,189 97,188 97,187 98,186 99,185 100,184 101,184 102,183 103,183 104,183 105,182 106,183 107,184 107,185 108,185 109,185 110,186 111,187 112,188 111,189 110,190 109,191 108,192 107,193 106,194 105,195 104,196 104,197 103,198 102,199 101,199 100,198 99,198 98,197 97,197 96,197 95,197 94,197 93,196 92,196
91,65 92,64 93,64 94,64 95,65 96,65 97,66 98,67 99,68 100,68 101,69 102,70 103,71 103,72 104,73 103,74 103,75 103,76 102,77 101,76 100,76 99,75 98,75 97,75 96,74 95,73 94,72 93,71 92,70 91,69 90,68 89,67 90,66
190,30 191,29 192,30 191,31
190,232 190,231 190,230 191,229 192,228 193,229 194,230 195,231 196,232 196,233 195,234 194,235 193,235 192,236 191,235 190,234 190,233
194,131 194,130 195,129 196,129 197,129 198,130 199,130 200,131 201,131 202,132 203,133 203,134 203,135 203,136 202,137 202,138 202,139 201,140 200,141 199,140 198,139 197,138 196,137 195,136 195,135 194,134 193,133 193,132
53,46 54,45 55,46 54,47
104,173 104,172 105,171 105,170 105,169 105,168 105,167 105,166 106,165 107,165 108,165 109,166 110,167 111,168 112,169 113,170 114,171 115,171 116,172 117,173 118,174 118,175 119,176 119,177 119,178 120,179 121,180 122,181 123,182 124,183 123,184 122,185 121,185 121,186 120,187 119,188 118,187 117,187 116,187 115,186 114,185 113,185 112,185 111,185 110,184 109,183 108,182 107,181 106,180 105,179 105,178 104,177 104,176 104,175 104,174
179,213 179,212 180,211 181,210 181,209 182,208 183,207 183,206 183,205 182,204 182,203 182,202 181,201 182,200 183,199 184,198 184,197 185,196 186,197 187,197 188,198 189,199 190,200 191,201 192,202 191,203 190,204 191,205 191,206 190,207 189,208 188,209 187,210 186,211 185,212 184,213 183,214 182,214 181,215 180,215 179,214
39,82 40,81 41,80 42,79 43,78 44,77 45,76 46,75 47,75 48,75 49,75 50,75 51,75 52,75 53,75 54,75 55,74 56,75 57,74 58,73 59,74 60,74 61,74 62,75 63,76 64,77 65,78 66,79 67,80 68,80 69,81 69,82 68,83 67,84 66,85 65,86 64,87 65,88 66,89 67,90 66,91 65,92 64,93 63,94 62,95 61,96 60,97 59,98 59,99 58,100 57,101 56,101 55,101 54,100 54,99 53,98 52,97 53,96 53,95 53,94 54,93 53,92 52,91 51,90 51,89 50,88 49,87 48,86 47,85 46,84 45,83 44,83 43,84 42,84 41,84 40,83
164,148 163,147 164,146 165,145 166,146 167,146 168,147 167,148 166,149 165,149
25,176 26,175 27,176 26,177
181,46 182,45 183,44 184,45 185,46 186,47 187,48 188,49 189,50 190,51 191,51 192,52 193,53 192,54 191,55 190,56 190,57 190,58 190,59 190,60 189,61 188,62 187,62 186,61 185,61 184,60 183,59 182,58 181,57 180,56 179,55 178,54 177,53 176,52 176,51 177,50 178,49 179,48 180,47
121,73 120,72 121,71 122,70 123,69 124,68 125,67 126,67 127,68 128,69 129,70 130,69 131,70 132,70 133,70 134,70 135,70 136,70 137,70 138,70 139,70 140,69 141,68 142,67 143,66 144,65 145,64 146,63 147,62 148,61 149,60 150,60 151,60 152,61 153,61 154,62 155,62 156,63 157,64 158,65 159,66 160,67 161,67 162,68 163,69 163,70 163,71 162,72 161,73 160,74 159,73 158,73 157,74 156,75 155,76 154,77 153,78 152,79 151,79 150,79 149,79 148,79 147,79 146,79 145,80 144,80 143,81 142,82 141,82 140,82 139,83 138,84 137,83 136,83 135,82 134,81 133,80 132,80 131,80 130,80 129,80 128,79 127,78 126,77 125,76 124,76 123,76 122,76 121,75 120,74
234,225 233,224 232,223 232,222 233,221 234,220 235,219 236,218 237,217 238,216 239,215 240,214 241,215 242,214 243,213 244,212 245,213 246,213 247,213 248,213 249,214 249,215 248,216 248,217 247,218 246,219 246,220 246,221 246,222 246,223 246,224 245,225 244,224 243,223 242,223 241,223 240,224 239,225 239,226 238,227 237,228 236,227 235,226
124,214 125,213 125,212 125,211 126,210 127,211 128,210 129,211 130,212 131,213 132,214 133,215 134,215 135,216 136,217 135,218 135,219 136,220 137,221 138,222 137,223 136,224 135,225 134,226 133,227 132,228 131,229 130,229 129,230 128,230 127,229 126,228 127,227 128,226 129,225 129,224 129,223 128,222 128,221 127,220 126,219 125,218 124,217 124,216 124,215
123,160 124,159 125,160 124,161
76,32 76,31 77,30 78,29 79,29 80,29 81,30 82,31 82,32 82,33 82,34 82,35 82,36 82,37 81,38 80,39 79,39 78,38 77,37 76,36 75,35 74,34 75,33
107,109 107,108 108,107 108,106 109,105 110,104 111,103 111,102 111,101 111,100 110,99 109,98 108,97 108,96 107,95 107,94 107,93 107,92 107,91 107,90 107,89 108,88 109,89 110,89 111,90 111,91 112,92 112,93 113,94 114,95 115,96 116,97 117,98 118,99 119,99 120,100 121,100 122,100 123,100 124,100 125,101 124,102 124,103 123,104 123,105 124,106 125,107 126,108 127,109 128,109 129,110 129,111 129,112 128,113 127,113 126,113 125,112 124,112 123,113 122,114 121,115 120,116 119,117 119,118 118,119 117,119 116,120 115,119 114,118 113,118 112,117 111,116 111,115 111,114 110,113 109,112 108,112 107,111 107,110
187,139 186,138 187,137 188,136 189,136 190,136 191,136 192,136 193,137 193,138 192,139 191,139 190,140 189,141 188,140
244,25 243,24 243,23 244,22 243,21 244,20 245,19 246,18 247,17 248,17 249,18 249,19 249,20 249,21 249,22 249,23 249,24 249,25 249,26 249,27 249,28 248,29 247,29 246,29 245,28 244,27 243,26
244,2 245,1 246,2 245,3
172,144 173,143 174,144 173,145
119,227 120,226 121,227 120,228
243,185 243,184 244,183 245,182 246,182 247,181 248,181 249,182 249,183 249,184 249,185 248,186 247,187 246,187 245,187 244,187 243,186
180,1 181,0 182,0 183,0 184,0 185,0 186,1 186,2 187,3 188,4 189,5 189,6 189,7 188,8 187,9 186,9 185,9 184,8 183,7 182,6 181,5 180,4 179,3 179,2
90,212 90,211 91,210 91,209 91,208 92,207 93,206 94,205 95,204 96,204 97,203 98,204 99,204 100,204 101,204 102,204 103,203 104,202 105,201 106,200 107,199 108,198 109,197 110,196 111,196 112,196 113,197 114,196 115,195 116,194 117,194 118,194 119,195 120,196 121,197 122,198 123,199 124,200 125,201 126,202 126,203 125,204 124,204 123,205 122,206 121,206 120,206 119,205 118,204 117,204 116,204 115,204 114,204 113,204 112,205 111,206 110,207 109,208 108,209 107,210 106,211 105,212 104,213 103,214 102,215 101,215 100,215 99,215 98,216 97,217 96,217 95,218 94,217 93,216 93,215 92,214 91,213
193,138 194,137 195,138 194,139
78,90 79,89 80,88 81,87 82,87 83,87 84,87 85,88 86,89 86,90 85,91 84,92 83,92 82,92 81,92 80,92 79,91
240,68 241,67 242,67 243,68 242,69 241,70 240,69
66,78 67,77 68,78 68,79 67,80 66,79
146,243 147,242 148,241 149,241 150,240 151,240 152,240 153,240 154,240 155,241 156,242 157,243 158,244 159,245 159,246 158,247 157,247 156,248 155,249 154,249 153,249 152,249 151,249 150,249 149,249 148,248 147,247 147,246 146,245 146,244
71,11 70,10 71,9 72,8 73,7 74,6 75,5 76,4 77,3 78,3 79,2 80,1 81,1 82,0 83,1 84,1 85,2 85,3 85,4 85,5 84,6 83,6 82,7 81,8 80,9 79,10 79,11 79,12 79,13 79,14 80,15 80,16 81,17 81,18 80,19 79,20 78,21 77,21 76,20 75,19 74,18 73,17 72,16 71,15 70,14 69,13 70,12
105,136 105,135 106,134 107,133 108,132 109,131 110,131 111,130 112,130 113,130 114,129 115,130 116,131 117,132 118,133 119,134 120,135 119,136 118,137 117,138 116,138 115,138 114,138 113,138 112,137 111,137 110,137 109,137 108,137 107,137 106,137
0,217 1,216 2,216 3,217 4,218 5,219 6,220 5,221 4,221 5,222 4,223 3,224 2,225 1,226 0,225 0,224 0,223 0,222 0,221 0,220 0,219 0,218
