0,20 0,20 0,20 0,20 0,20 0,20 0,20 0,20 0,20 0,20 0,20 0,20 0,20 0,20 0,20 0,20 0,20 0,20 0,20 0,20 0,20 0,20 0,20 0,20 0,20 0,20 0,20 0,20 0,17 0,0 0,0 0,0 0,0 0,0 0,1 0,0 0,0 0,0 0,0 0,0 0,0 0,0 0,0 0,0 0,0 0,0 0,0 0,0 0,0 0,0 0,0 0,0 0,0 0,0 0,0 0,0 0,0 0,2 10,10 10,10 10,10 10,10 10,10 10,10 10,10 10,10 10,10 10,10 10,10 10,10 10,10 10,10 10,10 10,10 10,10 10,10 10,10 10,10 10,10 10,10 10,10 10,10 10,10 10,10 10,10 10,10 10,10 10,10 10,10 10,10 10,10 10,10 10,10 10,10 10,10 10,10 10,10 10,10 10,10 10,10 10,10 10,10 10,10 10,10 10,10 10,10 10,10 10,10 10,10 10,10 10,10 -10,10 -10,10 -10,10 -10,10 -10,10 -10,10 -10,10 -10,10 -10,10 -10,10 -10,10 -10,10 -10,10 -10,10 -10,10 -10,10 -10,10 -10,10 -10,10 -10,10 -10,10 -10,10 -10,10 -10,10 -10,10 -10,10 -10,10 -10,10 -10,10 -10,10 -10,10 -10,10 -10,10 -10,10 -10,10 -10,10 -10,10 -10,10 -10,10 -10,10 -10,10 -10,10 -10,10 -10,10 -10,10 -10,10 -10,10 -10,10 -10,10 -10,10 -9,10 -10,10 -10,10 -1,10 0,9
0,20 0,20 0,20 0,20 0,20 0,20 0,20 0,20 0,20 0,20 0,20 0,20 0,20 0,20 0,20 0,20 0,20 0,20 0,20 0,20 0,20 0,20 0,20 0,20 0,20 0,20 0,20 0,20 0,18 0,0 0,0 0,0 0,0 0,1 0,0 0,0 0,0 0,0 0,0 0,0 0,0 0,0 0,0 0,0 0,0 0,0 0,0 0,0 0,0 0,0 0,0 0,0 0,0 0,0 0,0 0,0 0,0 0,1 10,10 10,10 10,10 10,10 10,10 10,10 10,10 10,10 10,10 10,10 10,10 10,10 10,10 10,10 10,10 10,10 10,10 10,10 10,10 10,10 10,10 10,10 10,10 10,10 10,10 10,10 10,10 6,10 -10,10 -10,10 -10,10 -10,10 -10,10 -10,10 -10,10 -10,10 -10,10 -10,10 -10,10 -10,10 -10,10 -10,10 -10,10 -10,10 -10,10 -10,10 -10,10 -10,10 -10,10 -10,10 -10,10 -10,10 -10,10 -10,10 -10,10 -6,10 0,9
0,20 0,20 0,20 0,20 0,20 0,20 0,20 0,20 0,20 0,20 0,20 0,20 0,20 0,20 0,20 0,20 0,20 0,20 0,20 0,20 0,20 0,20 0,20 0,20 0,20 0,15 0,0 0,0 0,0 0,0 0,0 0,0 0,0 0,0 0,0 0,0 0,0 0,1 0,0 0,0 0,0 0,0 0,0 0,0 0,0 0,0 0,0 0,0 0,0 0,0 0,0 0,4 -10,10 -10,10 -10,10 -10,10 -10,10 -10,10 -10,10 -10,10 -10,10 -10,10 -10,10 -10,10 -10,10 -10,10 -10,10 -10,10 -10,10 -10,10 -10,10 -10,10 -10,10 -10,10 -10,10 -10,10 -10,10 -10,10 -10,10 -10,10 -10,10 -10,10 -10,10 -10,10 -10,10 -10,10 -10,10 -10,10 -10,10 -10,10 -10,10 6,10 10,10 10,10 10,10 9,10 10,10 10,10 10,10 10,10 10,10 10,10 10,10 10,10 10,10 10,10 10,10 10,10 10,10 10,10 10,10 10,10 10,10 10,10 10,10 10,10 10,10 10,10 10,10 10,10 10,10 10,10 10,10 10,10 10,10 10,10 10,10 10,10 10,10 10,10 5,10 0,0 0,0 0,0 0,0 0,0 0,0 0,19 0,20 0,19 0,20 0,20 0,20 0,12 0,9
0,20 0,20 0,20 0,20 0,20 0,20 0,20 0,20 0,20 0,20 0,20 0,20 0,20 0,20 0,20 0,20 0,20 0,20 0,20 0,20 0,20 0,20 0,20 0,20 0,20 0,20 0,20 0,20 0,20 0,20 0,20 0,12 0,0 0,0 0,0 0,0 0,0 0,0 0,0 0,0 0,0 0,0 0,0 0,0 0,0 0,0 0,0 0,0 0,0 0,0 0,0 0,0 0,0 0,0 0,0 0,0 0,1 0,0 0,0 0,0 0,0 0,0 0,0 0,7 -10,10 -10,10 -10,10 -10,10 -10,10 -10,10 -10,10 -10,10 -10,10 -10,10 -10,10 -10,10 -10,10 -10,10 -10,10 -10,10 -10,10 -10,10 -10,10 -10,10 -10,10 -10,10 -10,10 -10,10 -10,10 -10,10 -10,10 -10,10 -10,10 -10,10 -10,10 -10,10 -10,10 -10,10 -10,10 -10,10 -10,10 -10,10 -10,10 -10,10 -10,10 -10,10 -10,10 -10,10 -10,10 -10,10 -10,10 -10,10 -10,10 -10,10 -7,10 10,10 10,10 10,10 10,10 10,10 10,10 10,10 10,10 10,10 10,10 10,10 10,10 10,10 10,10 10,10 10,10 10,10 10,10 10,10 10,10 10,10 10,10 10,10 10,10 10,10 10,10 10,10 10,10 10,10 10,10 10,10 10,10 10,10 10,10 10,10 10,10 10,10 10,10 9,10 10,10 10,10 10,10 10,10 10,10 10,10 10,10 10,10 10,10 10,10 10,10 8,10 0,0 0,0 0,0 0,0 0,0 0,0 0,0 0,0 0,0 0,0 0,0 0,0 0,0 0,0 0,0 0,0 0,0 0,0 0,0 0,0 0,0 0,0 0,0 0,0 0,0 0,0 0,0 0,0 0,0 0,0 0,0 0,8 0,20 0,20 0,20 0,20 0,20 0,20 0,20 0,20 0,20 0,20 0,20 0,20 0,20 0,20 0,20 0,20 0,20 0,20 0,20 0,20 0,20 0,20 0,20 0,20 0,20 0,19 0,20 0,20 0,20 0,20 0,20 0,13 0,9
0,20 0,20 0,20 0,20 0,20 0,20 0,20 0,20 0,20 0,20 0,20 0,20 0,20 0,20 0,20 0,20 0,20 0,20 0,20 0,20 0,20 0,20 0,20 0,20 0,20 0,20 0,20 0,20 0,20 0,20 0,20 0,5 0,1 0,0 0,0 0,0 0,0 0,0 0,0 0,0 0,0 0,0 0,0 0,0 0,0 0,0 0,0 0,0 0,0 0,0 0,0 0,0 0,0 0,0 0,0 0,0 0,0 0,0 0,0 0,0 0,0 0,0 0,4 -10,10 -10,10 -10,10 -10,10 -10,10 -10,10 -10,10 -10,10 -10,10 -10,10 -10,10 -10,10 -10,10 -10,10 -10,10 -10,10 -10,10 -10,10 -10,10 -10,10 -10,10 -10,10 -10,10 -10,10 -10,10 -10,10 -10,10 -10,10 -10,10 -10,10 -10,10 -10,10 -10,10 -7,10 10,10 10,10 10,10 10,10 10,10 10,10 10,10 10,10 10,10 10,10 10,10 10,10 10,10 10,10 10,10 10,10 10,10 10,10 10,10 10,10 10,10 10,10 10,10 10,10 10,10 10,10 10,10 9,10 10,10 10,10 10,10 10,10 10,10 8,10 0,0 0,0 0,0 0,0 0,0 0,0 0,0 0,0 0,0 0,0 0,0 0,0 0,0 0,0 0,0 0,0 0,0 0,0 0,0 0,0 0,0 0,0 0,0 0,0 0,0 0,0 0,0 0,0 0,0 0,0 0,0 0,15 0,20 0,19 0,20 0,20 0,20 0,20 0,20 0,20 0,20 0,20 0,20 0,20 0,20 0,20 0,20 0,20 0,20 0,20 0,20 0,20 0,20 0,20 0,20 0,20 0,20 0,20 0,20 0,20 0,20 0,20 0,16 0,9
0,20 0,20 0,20 0,20 0,20 0,20 0,20 0,20 0,20 0,20 0,20 0,20 0,20 0,20 0,20 0,20 0,20 0,20 0,20 0,20 0,20 0,20 0,20 0,20 0,20 0,20 0,20 0,20 0,20 0,20 0,11 0,0 0,0 0,0 0,0 0,0 0,0 0,0 0,0 0,0 0,0 0,0 0,0 0,0 0,0 0,0 0,0 0,0 0,0 0,0 0,0 0,0 0,1 0,0 0,0 0,0 0,0 0,0 0,0 0,0 0,0 0,8 -10,10 -10,10 -10,10 -10,10 -10,10 -10,10 -10,10 -10,10 -10,10 -10,10 -10,10 -10,10 -10,10 -10,10 -10,10 -10,10 -10,10 -10,10 5,10 10,10 10,10 10,10 10,10 10,10 10,10 10,10 10,10 10,10 10,10 10,10 10,10 10,10 10,10 10,10 10,10 10,10 5,10 0,0 0,0 0,0 0,0 0,0 0,0 0,0 0,0 0,0 0,0 0,0 0,0 0,0 0,0 0,5 0,20 0,19 0,20 0,20 0,20 0,20 0,20 0,20 0,20 0,20 0,20 0,20 0,20 0,20 0,16 0,9
0,20 0,20 0,20 0,20 0,20 0,20 0,20 0,20 0,20 0,20 0,20 0,20 0,20 0,20 0,20 0,20 0,20 0,20 0,20 0,20 0,20 0,20 0,20 0,20 0,20 0,20 0,20 0,20 0,20 0,20 0,8 0,0 0,0 0,0 0,0 0,0 0,0 0,0 0,0 0,0 0,0 0,0 0,0 0,0 0,0 0,0 0,0 0,0 0,0 0,0 0,0 0,0 0,0 0,0 0,0 0,0 0,0 0,0 0,0 0,0 0,2 10,10 10,10 10,10 10,10 10,10 10,10 10,10 10,10 10,10 10,10 10,10 10,10 10,10 10,10 10,10 10,10 10,10 10,10 10,10 10,10 10,10 10,10 10,10 10,10 10,10 10,10 10,10 10,10 10,10 10,10 10,10 10,10 10,10 10,10 10,10 10,10 10,10 10,10 10,10 10,10 10,10 10,10 10,10 10,10 10,10 10,10 10,10 -4,10 -10,10 -10,10 -10,10 -10,10 -10,10 -10,10 -10,10 -10,10 -10,10 -10,10 -10,10 -10,10 -10,10 -10,10 -10,10 -10,10 -10,10 -10,10 -10,10 -10,10 -10,10 -10,10 -10,10 -10,10 -10,10 -10,10 -10,10 -10,10 -10,10 -10,10 -10,10 -9,10 -10,10 -10,10 -10,10 -10,10 -10,10 -10,10 -10,10 -10,10 -10,10 -10,10 -10,10 -10,10 -10,10 -10,10 -7,10 0,0 0,0 0,0 0,0 0,0 0,0 0,0 0,0 0,0 0,0 0,0 0,0 0,0 0,0 0,0 0,0 0,0 0,0 0,0 0,0 0,0 0,0 0,0 0,0 0,0 0,0 0,0 0,0 0,0 0,0 0,13 0,19 0,20 0,20 0,20 0,20 0,20 0,20 0,20 0,20 0,20 0,20 0,20 0,20 0,20 0,20 0,20 0,20 0,20 0,20 0,20 0,20 0,20 0,20 0,20 0,20 0,20 0,20 0,20 0,20 0,18 0,9
0,20 0,20 0,20 0,20 0,20 0,20 0,20 0,20 0,20 0,20 0,20 0,20 0,20 0,20 0,20 0,20 0,20 0,20 0,20 0,20 0,20 0,20 0,20 0,20 0,20 0,20 0,20 0,20 0,20 0,4 0,1 0,0 0,0 0,0 0,0 0,0 0,0 0,0 0,0 0,0 0,0 0,0 0,0 0,0 0,0 0,0 0,0 0,0 0,0 0,0 0,0 0,0 0,0 0,0 0,0 0,0 0,0 0,0 0,5 -10,10 -10,10 -10,10 -10,10 -10,10 -10,10 -10,10 -10,10 -10,10 -10,10 -10,10 -10,10 -10,10 -10,10 -10,10 -10,10 -10,10 -10,10 -10,10 -10,10 -10,10 -10,10 -10,10 1,10 10,10 10,10 10,10 10,10 10,10 10,10 10,10 10,10 10,10 10,10 10,10 10,10 10,10 10,10 10,10 10,10 10,10 10,10 10,10 10,10 9,10 10,10 10,10 0,0 0,0 0,0 0,0 0,0 0,0 0,0 0,0 0,0 0,0 0,0 0,0 0,0 0,0 0,0 0,0 0,0 0,0 0,0 0,0 0,0 0,0 0,0 0,0 0,0 0,0 0,0 0,0 0,0 0,16 0,20 0,19 0,20 0,20 0,20 0,20 0,20 0,20 0,20 0,20 0,20 0,20 0,20 0,20 0,20 0,20 0,20 0,20 0,20 0,20 0,20 0,20 0,20 0,20 0,20 0,20 0,20 0,20 0,15 0,9
0,20 0,20 0,20 0,20 0,20 0,20 0,20 0,20 0,20 0,20 0,20 0,20 0,20 0,20 0,20 0,20 0,20 0,20 0,20 0,20 0,20 0,20 0,20 0,20 0,20 0,20 0,20 0,20 0,20 0,7 0,0 0,0 0,0 0,0 0,0 0,0 0,0 0,0 0,0 0,0 0,0 0,0 0,1 0,0 0,0 0,0 0,0 0,0 0,0 0,0 0,0 0,0 0,0 0,0 0,0 0,0 0,0 0,0 0,2 -10,10 -10,10 -10,10 -10,10 -10,10 -10,10 -10,10 -10,10 -10,10 -10,10 -10,10 -10,10 -10,10 -10,10 -10,10 -10,10 -10,10 -10,10 -10,10 -10,10 -10,10 -10,10 -10,10 -10,10 -10,10 -10,10 -10,10 -10,10 -10,10 -10,10 -10,10 -10,10 -10,10 -10,10 -10,10 -10,10 -10,10 -10,10 -10,10 -10,10 -10,10 -10,10 -10,10 -10,10 -10,10 1,10 10,10 10,10 10,10 10,10 10,10 10,10 10,10 10,10 10,10 10,10 10,10 10,10 10,10 10,10 10,10 10,10 10,10 10,10 10,10 10,10 10,10 10,10 10,10 9,10 10,10 10,10 10,10 10,10 10,10 10,10 10,10 10,10 10,10 10,10 10,10 10,10 10,10 10,10 10,10 10,10 10,10 10,10 10,10 10,10 10,10 0,0 0,0 0,0 0,0 0,0 0,0 0,0 0,0 0,0 0,0 0,0 0,0 0,0 0,0 0,0 0,0 0,0 0,0 0,0 0,0 0,0 0,0 0,0 0,0 0,0 0,0 0,0 0,0 0,0 0,13 0,20 0,20 0,20 0,20 0,20 0,20 0,20 0,20 0,20 0,20 0,20 0,20 0,20 0,19 0,20 0,20 0,20 0,20 0,20 0,20 0,20 0,20 0,20 0,20 0,20 0,20 0,20 0,20 0,18 0,9
0,11 0,9 10,10 10,10 10,10 10,10 10,10 10,10 10,10 10,10 10,10 10,10 10,10 10,10 10,10 10,10 10,10 10,10 10,10 10,10 10,10 10,10 10,10 10,10 10,10 10,10 10,10 10,10 10,10 10,10 10,10 10,10 6,10 -9,10 -10,10 -10,10 -10,10 -10,10 -10,10 -10,10 -10,10 -10,10 -10,10 -10,10 -10,10 -10,10 -10,10 -10,10 -10,10 -10,10 -10,10 -10,10 -10,10 -10,10 -10,10 -10,10 -10,10 -10,10 -10,10 -10,10 -10,10 -10,10 -10,10 -7,10 0,9
